[
  {
    "L": "ಗ,ಪ,ಡೆ",
    "W": [
      "ಪ,ಗ,ಡೆ",
      "ಪ,ಡೆ"
    ],
    "B": []
  },
  {
    "L": "ಪ್ರ,ಸಾ,ರ",
    "W": [
      "ಪ್ರ,ಸಾ,ರ",
      "ಸಾ,ರ"
    ],
    "B": []
  },
  {
    "L": "ಲ,ಬ,ತ",
    "W": [
      "ತ,ಬ,ಲ",
      "ಬ,ಲ"
    ],
    "B": []
  },
  {
    "L": "ಟ,ಲು,ಪಾ",
    "W": [
      "ಪಾ,ಲು",
      "ಪಾ,ಟ",
      "ಟ,ಪಾ,ಲು"
    ],
    "B": []
  },
  {
    "L": "ಚೇ,ರಿ,ಕ",
    "W": [
      "ಕ,ರಿ",
      "ಕ,ಚೇ,ರಿ"
    ],
    "B": []
  },
  {
    "L": "ಠ,ಕೊ,ಡಿ",
    "W": [
      "ಕೊ,ಡಿ",
      "ಕೊ,ಠ,ಡಿ"
    ],
    "B": []
  },
  {
    "L": "ಚಾ,ಮ,ರ",
    "W": [
      "ಚಾ,ರ",
      "ಚಾ,ಮ",
      "ಮ,ರ",
      "ಚಾ,ಮ,ರ"
    ],
    "B": []
  },
  {
    "L": "ಸ,ವಾ,ಲು",
    "W": [
      "ವಾ,ಲು",
      "ವಾ,ಸ",
      "ಸ,ವಾ,ಲು"
    ],
    "B": []
  },
  {
    "L": "ಸ,ಮ,ರ",
    "W": [
      "ಸ,ಮ",
      "ಮ,ರ",
      "ಸ,ರ",
      "ಸ,ಮ,ರ"
    ],
    "B": []
  },
  {
    "L": "ಮ,ನ,ನ",
    "W": [
      "ಮ,ನ",
      "ಮ,ನ,ನ",
      "ನ,ಮ,ನ"
    ],
    "B": []
  },
  {
    "L": "ಅ,ಸು,ರ",
    "W": [
      "ಸು,ರ",
      "ಅ,ಸು,ರ",
      "ಅ,ರ,ಸು"
    ],
    "B": []
  },
  {
    "L": "ಬಾ,ರಿ,ಸು",
    "W": [
      "ಸು,ರಿ",
      "ಬಾ,ರಿ",
      "ಬಾ,ಸು",
      "ಬಾ,ರಿ,ಸು"
    ],
    "B": []
  },
  {
    "L": "ಸ,ತ,ಹಿ",
    "W": [
      "ಸ,ಹಿ",
      "ಹಿ,ತ",
      "ಸ,ಹಿ,ತ"
    ],
    "B": []
  },
  {
    "L": "ಮ,ನ,ಗ",
    "W": [
      "ಮ,ಗ",
      "ಮ,ನ",
      "ನ,ಗ",
      "ಗ,ಮ,ನ"
    ],
    "B": []
  },
  {
    "L": "ತ,ರಿ,ಸು",
    "W": [
      "ತ,ರಿ",
      "ಸು,ರಿ",
      "ಸು,ತ",
      "ತ,ರಿ,ಸು"
    ],
    "B": []
  },
  {
    "L": "ಗ,ಮಾ,ರ",
    "W": [
      "ಗ,ರ",
      "ಮಾ,ರ",
      "ರ,ಮಾ",
      "ಗ,ಮಾ,ರ"
    ],
    "B": []
  },
  {
    "L": "ಮ,ನ,ಸು",
    "W": [
      "ಸು,ಮ",
      "ಮ,ನ",
      "ಸು,ಮ,ನ",
      "ಮ,ನ,ಸು"
    ],
    "B": []
  },
  {
    "L": "ಲ,ಪಾ,ಕ",
    "W": [
      "ಪಾ,ಕ",
      "ಕ,ಪಾ,ಲ",
      "ಪಾ,ಲ,ಕ"
    ],
    "B": []
  },
  {
    "L": "ಬಾ,ಲ,ಕಿ",
    "W": [
      "ಬಾ,ಕಿ",
      "ಬಾ,ಲ",
      "ಬಾ,ಲ,ಕಿ"
    ],
    "B": []
  },
  {
    "L": "ಆ,ಯು,ಗ",
    "W": [
      "ಆ,ಯು",
      "ಆ,ಗ",
      "ಯು,ಗ",
      "ಆ,ಯು,ಗ"
    ],
    "B": []
  },
  {
    "L": "ಇ,ಳಿ,ದು",
    "W": [
      "ಇ,ದು",
      "ಇ,ಳಿ",
      "ಇ,ಳಿ,ದು"
    ],
    "B": []
  },
  {
    "L": "ಸಾ,ಗ,ರ",
    "W": [
      "ಸಾ,ರ",
      "ಗ,ರ",
      "ಸಾ,ಗ,ರ"
    ],
    "B": []
  },
  {
    "L": "ಕಾ,ಪಾ,ಡು",
    "W": [
      "ಕಾ,ಡು",
      "ಪಾ,ಡು",
      "ಕಾ,ಪಾ,ಡು"
    ],
    "B": []
  },
  {
    "L": "ಉ,ರಿ,ದಾ",
    "W": [
      "ಉ,ರಿ",
      "ದಾ,ರಿ",
      "ಉ,ದಾ,ರಿ"
    ],
    "B": []
  },
  {
    "L": "ಸ,ದ,ರ",
    "W": [
      "ಸ,ರ",
      "ದ,ರ",
      "ರ,ಸ",
      "ಸ,ದ,ರ"
    ],
    "B": []
  },
  {
    "L": "ಶು,ರು,ಪ",
    "W": [
      "ಶು,ರು",
      "ಪ,ಶು"
    ],
    "B": []
  },
  {
    "L": "ಕಂ,ನಿ,ಬ",
    "W": [
      "ಕಂ,ಬ,ನಿ",
      "ಕಂ,ಬ"
    ],
    "B": []
  },
  {
    "L": "ಹ,ಸು,ರ",
    "W": [
      "ಹ,ರ,ಸು",
      "ಹ,ಸು",
      "ಸು,ರ"
    ],
    "B": []
  },
  {
    "L": "ಅಂ,ಶ,ಕು",
    "W": [
      "ಅಂ,ಕು,ಶ",
      "ಅಂ,ಶ"
    ],
    "B": []
  },
  {
    "L": "ಪ,ಲ,ಕ್ಷ",
    "W": [
      "ಪ,ಲ",
      "ಲ,ಕ್ಷ",
      "ಪ,ಕ್ಷ"
    ],
    "B": []
  },
  {
    "L": "ಅ,ದು,ರಿ",
    "W": [
      "ಅ,ರಿ,ದು",
      "ಅ,ರಿ",
      "ಅ,ದು"
    ],
    "B": []
  },
  {
    "L": "ಲ,ಣ,ಕ್ಷ",
    "W": [
      "ಲ,ಕ್ಷ,ಣ",
      "ಲ,ಕ್ಷ",
      "ಕ್ಷ,ಣ"
    ],
    "B": []
  },
  {
    "L": "ಪಾ,ಕಾ,ಡು",
    "W": [
      "ಕಾ,ಪಾ,ಡು",
      "ಕಾ,ಡು",
      "ಪಾ,ಡು"
    ],
    "B": []
  },
  {
    "L": "ದ,ಚ,ರ",
    "W": [
      "ಚ,ದ,ರ",
      "ಚ,ರ",
      "ದ,ರ"
    ],
    "B": []
  },
  {
    "L": "ಕ,ಅಂ,ಣ",
    "W": [
      "ಅಂ,ಕ,ಣ",
      "ಅಂ,ಕ",
      "ಕ,ಣ"
    ],
    "B": []
  },
  {
    "L": "ಜಾ,ಬೇ,ರು",
    "W": [
      "ಬೇ,ಜಾ,ರು",
      "ಬೇ,ರು",
      "ಜಾ,ರು"
    ],
    "B": []
  },
  {
    "L": "ಗು,ಕೂ,ರು",
    "W": [
      "ಕೂ,ಗು",
      "ಕೂ,ರು",
      "ಗು,ರು"
    ],
    "B": []
  },
  {
    "L": "ಕೆ,ನೆ,ರೆ",
    "W": [
      "ಕೆ,ನೆ",
      "ಕೆ,ರೆ",
      "ನೆ,ರೆ"
    ],
    "B": []
  },
  {
    "L": "ಬೇ,ಕು,ಡಿ",
    "W": [
      "ಬೇ,ಕು",
      "ಕು,ಡಿ",
      "ಬೇ,ಡಿ"
    ],
    "B": []
  },
  {
    "L": "ಸು,ಡು,ಹಾ",
    "W": [
      "ಸು,ಡು",
      "ಹಾ,ಡು",
      "ಹಾ,ಸು"
    ],
    "B": []
  },
  {
    "L": "ಕು,ಲ,ಸಾ",
    "W": [
      "ಕು,ಲ",
      "ಸಾ,ಲ",
      "ಸಾ,ಕು"
    ],
    "B": []
  },
  {
    "L": "ಜ,ನ್ಮ,ಗ",
    "W": [
      "ಜ,ನ್ಮ",
      "ಜ,ಗ",
      "ಗ,ಜ"
    ],
    "B": []
  },
  {
    "L": "ರಾ,ಜ,ಯ",
    "W": [
      "ರಾ,ಜ",
      "ರಾ,ಯ",
      "ಜ,ಯ"
    ],
    "B": []
  },
  {
    "L": "ನ್ನ,ಕ,ಡ",
    "W": [
      "ಕ,ನ್ನ,ಡ",
      "ಕ,ನ್ನ",
      "ಕ,ಡ"
    ],
    "B": []
  },
  {
    "L": "ಶ,ರ,ವ",
    "W": [
      "ಶ,ರ",
      "ವ,ರ",
      "ವ,ಶ",
      "ಶ,ವ"
    ],
    "B": []
  },
  {
    "L": "ರ,ಸ,ಕ",
    "W": [
      "ರ,ಸ",
      "ಕ,ರ",
      "ಸ,ರ",
      "ಕ,ಸ"
    ],
    "B": []
  },
  {
    "L": "ಅ,ಪ್ಪ,ಮ್ಮ,ಕ್ಕ",
    "W": [
      "ಅ,ಪ್ಪ",
      "ಅ,ಮ್ಮ",
      "ಅ,ಕ್ಕ"
    ],
    "B": []
  },
  {
    "L": "ರ,ರೆ,ಣ್ಣ,ಬ",
    "W": [
      "ಬ,ಣ್ಣ",
      "ಬ,ರೆ",
      "ಬ,ರ"
    ],
    "B": []
  },
  {
    "L": "ಅ,ಣ್ಣ,ಜ್ಜ,ಜ್ಜಿ",
    "W": [
      "ಅ,ಣ್ಣ",
      "ಅ,ಜ್ಜಿ",
      "ಅ,ಜ್ಜ"
    ],
    "B": []
  },
  {
    "L": "ಸಂ,ಯ,ಶ,ಮ",
    "W": [
      "ಸಂ,ಶ,ಯ",
      "ಸಂ,ಯ,ಮ",
      "ಯ,ಶ"
    ],
    "B": []
  },
  {
    "L": "ಮ,ಗ,ಗ್ಗ,ರ",
    "W": [
      "ಮ,ರ",
      "ಮ,ಗ",
      "ಮ,ಗ್ಗ",
      "ಗ,ರ"
    ],
    "B": []
  },
  {
    "L": "ಜಾ,ರು,ಸ್ತಿ,ಆ",
    "W": [
      "ಜಾ,ರು",
      "ಜಾ,ಸ್ತಿ",
      "ಆ,ಸ್ತಿ",
      "ಆ,ರು"
    ],
    "B": []
  },
  {
    "L": "ಜ,ನ,ರು,ಗು",
    "W": [
      "ಜ,ನ,ರು",
      "ಜ,ರು,ಗು",
      "ಜ,ನ",
      "ಗು,ರು"
    ],
    "B": []
  },
  {
    "L": "ವಿ,ಗ,ಕ,ವೇ",
    "W": [
      "ವಿ,ವೇ,ಕ",
      "ವೇ,ಗ",
      "ಕ,ವಿ",
      "ಗ,ವಿ"
    ],
    "B": []
  },
  {
    "L": "ಚಂ,ದ,ನ,ಧ",
    "W": [
      "ಚಂ,ದ,ನ",
      "ಚಂ,ದ",
      "ದ,ನ",
      "ಧ,ನ"
    ],
    "B": []
  },
  {
    "L": "ಪಾ,ವ,ನ",
    "W": [
      "ಪಾ,ನ",
      "ವ,ನ",
      "ಪಾ,ವ,ನ"
    ],
    "B": []
  },
  {
    "L": "ಆ,ಲ,ಯ",
    "W": [
      "ಆ,ಯ",
      "ಆ,ಲ",
      "ಲ,ಯ",
      "ಆ,ಲ,ಯ"
    ],
    "B": []
  },
  {
    "L": "ಆ,ಮ,ಯ",
    "W": [
      "ಆ,ಯ",
      "ಯ,ಮ",
      "ಮ,ಯ",
      "ಆ,ಮ,ಯ"
    ],
    "B": []
  },
  {
    "L": "ಮಾ,ರ,ಣ",
    "W": ["ಮಾ,ರ", "ರ,ಮಾ", "ರ,ಣ", "ಮಾ,ರ,ಣ"],
    "B": []
  },
  {
    "L": "ದ,ಮ,ನ",
    "W": [
      "ಮ,ದ",
      "ಮ,ನ",
      "ಮ,ದ,ನ",
      "ದ,ಮ,ನ"
    ],
    "B": []
  },
  {
    "L": "ತ,ಕ,ರಾ,ರು",
    "W": [
      "ಕ,ರು",
      "ತ,ರು",
      "ಕ,ರಾ,ರು",
      "ತ,ಕ,ರಾ,ರು"
    ],
    "B": []
  },
  {
    "L": "ರ,ಹ,ದಾ,ರಿ",
    "W": [
      "ದಾ,ರಿ",
      "ದಾ,ರ",
      "ಹ,ರ",
      "ರ,ಹ,ದಾ,ರಿ"
    ],
    "B": [
      "ಹ,ರಿ"
    ]
  },
  {
    "L": "ರ,ಸಾ,ಯ,ನ",
    "W": [
      "ಸಾ,ರ",
      "ನ,ರ",
      "ನ,ಯ",
      "ರ,ಸಾ,ಯ,ನ"
    ],
    "B": []
  },
  {
    "L": "ಆ,ಮ,ರ,ಣ",
    "W": [
      "ರ,ಣ",
      "ಮ,ರ",
      "ಮ,ರ,ಣ",
      "ಆ,ಮ,ರ,ಣ"
    ],
    "B": []
  },
  {
    "L": "ಕ,ರ,ಣಿ,ಕ",
    "W": [
      "ಕ,ರ",
      "ಕ,ಣಿ",
      "ಕ,ರ,ಣಿ,ಕ"
    ],
    "B": []
  },
  {
    "L": "ಕ,ರಿ,ಮ,ಣಿ",
    "W": [
      "ಕ,ಣಿ",
      "ಕ,ರಿ",
      "ಮ,ಣಿ",
      "ಕ,ರಿ,ಮ,ಣಿ"
    ],
    "B": []
  },
  {
    "L": "ಅ,ವ,ನ,ತಿ",
    "W": [
      "ಅ,ವ,ನ",
      "ವ,ನ",
      "ವ,ತಿ",
      "ಅ,ವ,ನ,ತಿ"
    ],
    "B": [
      "ಅ,ತಿ"
    ]
  },
  {
    "L": "ಪ,ರಿ,ಮಿ,ತಿ",
    "W": [
      "ಪ,ತಿ",
      "ಪ,ರಿ",
      "ಮಿ,ತಿ",
      "ಪ,ರಿ,ಮಿ,ತಿ"
    ],
    "B": []
  },
  {
    "L": "ಪ,ರಿ,ಣ,ತ",
    "W": [
      "ಪ,ರಿ",
      "ತ,ರಿ",
      "ತ,ಪ",
      "ಪ,ರಿ,ಣ,ತ"
    ],
    "B": []
  },
  {
    "L": "ಮ,ಹಾ,ಬ,ಲಿ",
    "W": [
      "ಮ,ಹಾ",
      "ಹಾ,ಲಿ",
      "ಬ,ಲಿ",
      "ಮ,ಹಾ,ಬ,ಲಿ"
    ],
    "B": []
  },
  {
    "L": "ಪ,ರಿ,ಮ,ಳ",
    "W": [
      "ಪ,ರಿ",
      "ಮ,ರಿ",
      "ಪ,ರಿ,ಮ,ಳ"
    ],
    "B": []
  },
  {
    "L": "ಜ,ನ,ಸೇ,ವೆ",
    "W": [
      "ಜ,ನ",
      "ನ,ವೆ",
      "ಸೇ,ವೆ",
      "ಜ,ನ,ಸೇ,ವೆ"
    ],
    "B": []
  },
  {
    "L": "ಬಾ,ಹು,ಬ,ಲಿ",
    "W": [
      "ಹು,ಲಿ",
      "ಬ,ಲಿ",
      "ಬಾ,ಹು",
      "ಬಾ,ಹು,ಬ,ಲಿ"
    ],
    "B": []
  },
  {
    "L": "ತಾ,ಪ,ಮಾ,ನ",
    "W": [
      "ತಾ,ಪ",
      "ತಾ,ನ",
      "ಮಾ,ನ",
      "ತಾ,ಪ,ಮಾ,ನ"
    ],
    "B": []
  },
  {
    "L": "ಅ,ವ,ಮಾ,ನ",
    "W": [
      "ಅ,ವ",
      "ವ,ನ",
      "ಮಾ,ನ",
      "ಅ,ವ,ಮಾ,ನ"
    ],
    "B": [
      "ನ,ವ"
    ]
  },
  {
    "L": "ಅ,ನು,ದಾ,ನ",
    "W": [
      "ಅ,ನು",
      "ದಾ,ನ",
      "ಅ,ನು,ದಾ,ನ"
    ],
    "B": []
  },
  {
    "L": "ಗ,ಜ,ಪ,ತಿ",
    "W": [
      "ಗ,ಜ",
      "ಪ,ತಿ",
      "ಜ,ಗ",
      "ಗ,ಜ,ಪ,ತಿ"
    ],
    "B": []
  },
  {
    "L": "ಕಿ,ರು,ನು,ಡಿ",
    "W": [
      "ಕಿ,ರು",
      "ಕಿ,ಡಿ",
      "ನು,ಡಿ",
      "ಕಿ,ರು,ನು,ಡಿ"
    ],
    "B": []
  },
  {
    "L": "ತ,ಕ,ರಾ,ರು",
    "W": [
      "ಕ,ರಾ,ರು",
      "ಕ,ರು",
      "ತ,ರು",
      "ತ,ಕ,ರಾ,ರು"
    ],
    "B": []
  },
  {
    "L": "ಸ,ಮಾ,ಗ,ಮ",
    "W": [
      "ಮ,ಗ",
      "ಗ,ಮ",
      "ಮಾ,ಸ",
      "ಸ,ಮಾ,ಗ,ಮ"
    ],
    "B": []
  },
  {
    "L": "ಡ,ರ,ನ್ನ,ಕ",
    "W": [
      "ಕ,ನ್ನ,ಡ",
      "ಕ,ನ್ನ",
      "ರ,ನ್ನ"
    ],
    "B": []
  },
  {
    "L": "ಚ,ಮ,ಕ್ರ,ಶು",
    "W": [
      "ಚ,ಕ್ರ",
      "ಕ್ರ,ಮ",
      "ಶು,ಕ್ರ"
    ],
    "B": []
  },
  {
    "L": "ಕ,ಮ,ನ,ಸು",
    "W": [
      "ಕ,ನ,ಸು",
      "ಸು,ಮ",
      "ಮ,ನ"
    ],
    "B": []
  },
  {
    "L": "ದೇ,ರು,ವ,ಅ",
    "W": [
      "ದೇ,ವ,ರು",
      "ಅ,ವ,ರು",
      "ದೇ,ವ"
    ],
    "B": []
  },
  {
    "L": "ಅ,ಷ್ಟ,ದೃ,ಮಿ",
    "W": [
      "ಅ,ದೃ,ಷ್ಟ",
      "ಅ,ಷ್ಟ,ಮಿ",
      "ಅ,ಷ್ಟ"
    ],
    "B": []
  },
  {
    "L": "ಅ,ಸು,ನಿ,ಜ",
    "W": [
      "ಅ,ನಿ,ಸು",
      "ಜ,ನಿ,ಸು",
      "ನಿ,ಜ"
    ],
    "B": []
  },
  {
    "L": "ವಿ,ಯ,ಸ್ಮ,ಭ",
    "W": [
      "ವಿ,ಸ್ಮ,ಯ",
      "ಭ,ಸ್ಮ",
      "ಭ,ಯ"
    ],
    "B": []
  },
  {
    "L": "ದ,ನ,ದಿ,ನಿ",
    "W": [
      "ದ,ನ",
      "ನ,ದಿ",
      "ದಿ,ನ",
      "ದ,ನಿ"
    ],
    "B": []
  },
  {
    "L": "ವ,ವೆ,ರ,ಭಾ",
    "W": [
      "ವ,ರ",
      "ರ,ವೆ",
      "ಭಾ,ರ",
      "ಭಾ,ವ"
    ],
    "B": []
  },
  {
    "L": "ಶಿ,ಶ,ವ,ರಾ",
    "W": [
      "ಶ,ಶಿ",
      "ರಾ,ಶಿ",
      "ಶ,ವ",
      "ವ,ಶ"
    ],
    "B": []
  },
  {
    "L": "ಜ,ಯ,ನ,ಮಾ",
    "W": [
      "ಜ,ಯ",
      "ಮಾ,ನ",
      "ಜ,ನ",
      "ಮಾ,ಯ"
    ],
    "B": []
  },
  {
    "L": "ಜಾ,ರಿ,ಗ,ಷ್ಟ",
    "W": [
      "ಗ,ರಿ,ಷ್ಟ",
      "ಜಾ,ಗ",
      "ಗ,ರಿ",
      "ಜಾ,ರಿ"
    ],
    "B": []
  },
  {
    "L": "ಕ್ಷ,ಪ,ಮೆ,ರ",
    "W": [
      "ರ,ಕ್ಷ",
      "ಪ,ಕ್ಷ",
      "ಪ,ರ",
      "ಕ್ಷ,ಮೆ"
    ],
    "B": []
  },
  {
    "L": "ಪ,ಕ್ಷಿ,ಣಿ,ದ",
    "W": [
      "ಕ್ಷಿ,ಪ,ಣಿ",
      "ಪ,ಕ್ಷಿ",
      "ಪ,ದ",
      "ದ,ಣಿ"
    ],
    "B": []
  },
  {
    "L": "ಸ,ಮಾ,ನ್ಮಾ,ನ",
    "W": [
      "ಸ,ನ್ಮಾ,ನ",
      "ಸ,ಮಾ,ನ",
      "ಮಾ,ನ",
      "ಮಾ,ಸ"
    ],
    "B": []
  },
  {
    "L": "ಆ,ಹ,ಗ್ರ,ಣ",
    "W": [
      "ಆ,ಗ್ರ,ಹ",
      "ಗ್ರ,ಹ,ಣ",
      "ಹ,ಣ",
      "ಗ್ರ,ಹ"
    ],
    "B": []
  },
  {
    "L": "ಸ,ಜ,ಹ,ನಿ",
    "W": [
      "ಸ,ನಿ,ಹ",
      "ಸ,ಹ,ಜ",
      "ನಿ,ಜ",
      "ಹ,ನಿ"
    ],
    "B": []
  },
  {
    "L": "ನಿ,ವಿ,ಹ,ಗ್ರ",
    "W": [
      "ನಿ,ಗ್ರ,ಹ",
      "ವಿ,ಗ್ರ,ಹ",
      "ಗ್ರ,ಹ",
      "ಹ,ನಿ"
    ],
    "B": []
  },
  {
    "L": "ಮ,ಕು,ನ್ನಿ,ಸು",
    "W": [
      "ಕು,ಸು,ಮ",
      "ಮ,ನ್ನಿ,ಸು",
      "ಸು,ಮ",
      "ಕು,ನ್ನಿ"
    ],
    "B": []
  },
  {
    "L": "ಸ,ಯ,ಮಾ,ಮ",
    "W": [
      "ಸ,ಮ,ಯ",
      "ಮಾ,ಯ",
      "ಸ,ಮ",
      "ಮಾ,ಸ"
    ],
    "B": []
  },
  {
    "L": "ಸ,ಜೆ,ರ,ವಿ",
    "W": [
      "ಸ,ರ",
      "ರ,ವಿ",
      "ಸ,ವಿ",
      "ರ,ಜೆ"
    ],
    "B": [
      "ಸ,ಜೆ"
    ]
  },
  {
    "L": "ಸ,ವ,ಜೀ,ನ",
    "W": [
      "ಸ,ಜೀ,ವ",
      "ಜೀ,ವ,ನ",
      "ವ,ನ",
      "ಜೀ,ವ"
    ],
    "B": [
      "ನ,ವ"
    ]
  },
  {
    "L": "ಬಿ,ಲು,ಸಿ,ಡಿ",
    "W": [
      "ಬಿ,ಸಿ,ಲು",
      "ಬಿ,ಸಿ",
      "ಬಿ,ಡಿ",
      "ಸಿ,ಡಿ"
    ],
    "B": [
      "ಸಿ,ಡಿ,ಲು"
    ]
  },
  {
    "L": "ಸ,ನಿ,ದಾ,ಹ",
    "W": [
      "ಸ,ನಿ,ಹ",
      "ದಾ,ನಿ",
      "ದಾ,ಹ",
      "ದಾ,ಸ"
    ],
    "B": [
      "ಹ,ನಿ",
      "ಸ,ದಾ"
    ]
  },
  {
    "L": "ಗ,ಮ,ಸು,ನ",
    "W": [
      "ಸು,ಗ,ಮ",
      "ಗ,ಮ,ನ",
      "ಮ,ನ",
      "ಮ,ಗ"
    ],
    "B": [
      "ಸು,ಮ",
      "ಗ,ಮ"
    ]
  },
  {
    "L": "ವಿ,ಗ,ರ,ಭಾ",
    "W": [
      "ವಿ,ಭಾ,ಗ",
      "ಭಾ,ಗ",
      "ಗ,ರ",
      "ಭಾ,ರ"
    ],
    "B": [
      "ರ,ವಿ",
      "ಗ,ವಿ",
      "ಭಾ,ವಿ"
    ]
  },
  {
    "L": "ನೀ,ಮಂ,ರು,ಪ,ನ್ನೀ",
    "W": [
      "ಪ,ನ್ನೀ,ರು",
      "ಮಂ,ಪ,ರು",
      "ನೀ,ರು"
    ],
    "B": []
  },
  {
    "L": "ಮು,ಸ್ನಾ,ಆ,ಕ್ತ,ಯು",
    "W": [
      "ಆ,ಯು,ಕ್ತ",
      "ಮು,ಕ್ತ",
      "ಆ,ಯು",
      "ಸ್ನಾ,ಯು"
    ],
    "B": []
  },
  {
    "L": "ಲ,ಕಾ,ರ್ಣ,ಯ,ನಿ",
    "W": [
      "ಕಾ,ಲ,ನಿ,ರ್ಣ,ಯ",
      "ಕಾ,ಲ",
      "ನಿ,ರ್ಣ,ಯ",
      "ಕಾ,ಯ"
    ],
    "B": [
      "ಲ,ಯ"
    ]
  },
  {
    "L": "ಣ,ಯ,ಲ,ಕ್ಷ",
    "W": [
      "ಲ,ಕ್ಷ,ಣ",
      "ಲ,ಕ್ಷ",
      "ಯ,ಕ್ಷ",
      "ಕ್ಷ,ಯ"
    ],
    "B": [
      "ಕ್ಷ,ಣ"
    ]
  },
  {
    "L": "ಸ,ರ,ಪ,ಣಿ",
    "W": [
      "ಸ,ರ",
      "ಪ,ರ",
      "ಸ,ರ,ಣಿ",
      "ಸ,ರ,ಪ,ಣಿ"
    ],
    "B": []
  },
  {
    "L": "ಅ,ನು,ಭಾ,ವ",
    "W": ["ಅ,ನು","ಅ,ವ","ಅ,ವ,ನು","ಅ,ನು,ಭಾ,ವ"],
    "B": [
      "ಭಾ,ವ"
    ]
  },
  {
    "L": "ಮಾ,ನ,ಸಿ,ಕ",
    "W": ["ಮಾ,ನ", "ಕ,ಸಿ", "ಮಾ,ನ,ಸಿ", "ಮಾ,ನ,ಸಿ,ಕ"],
    "B": []
  },
  {
    "L": "ಮ,ಹಾ,ರ,ಥ",
    "W": [
      "ಮ,ರ",
      "ಮ,ಹಾ",
      "ರ,ಥ",
      "ಮ,ಹಾ,ರ,ಥ"
    ],
    "B": [
      "ಹಾ,ರ"
    ]
  },
  {
    "L": "ಅ,ವಿ,ನಾ,ಶ",
    "W": [
      "ವಿ,ನಾ,ಶ",
      "ನಾ,ಶ",
      "ವಿ,ನಾ",
      "ಅ,ವಿ,ನಾ,ಶ"
    ],
    "B": []
  },
  {
    "L": "ಕ,ಮ,ಲ,ಕ",
    "W": ["ಮ,ಲ","ಕ,ಮ,ಲ","ಕ,ಮ,ಲ,ಕ"],
    "B": []
  },
  {
    "L": "ಆ,ವ,ರಿ,ಸು",
    "W": [
      "ವ,ರಿ,ಸು",
      "ಸು,ರಿ",
      "ಆ,ವ,ರಿ,ಸು"
    ],
    "B": []
  },
  {
    "L": "ಅ,ಗ,ಣಿ,ತ",
    "W": [
      "ಗ,ಣಿ,ತ",
      "ಗ,ಣಿ",
      "ತ,ಣಿ",
      "ಅ,ಗ,ಣಿ,ತ"
    ],
    "B": []
  },
  {
    "L": "ಅ,ರ,ಗಿ,ಣಿ",
    "W": [
      "ಗಿ,ಣಿ",
      "ಗಿ,ರ,ಣಿ",
      "ಅ,ಗಿ",
      "ಅ,ರ,ಗಿ,ಣಿ"
    ],
    "B": []
  },
  {
    "L": "ಆ,ಗ,ಮ,ನ",
    "W": [
      "ಆ,ಗ",
      "ಮ,ನ",
      "ಗ,ಮ,ನ",
      "ಆ,ಗ,ಮ,ನ"
    ],
    "B": [
      "ನ,ಗ",
      "ಮ,ಗ,ನ"
    ]
  },
  {
    "L": "ಅ,ಭಿ,ವಾ,ದ,ನ",
    "W": [
      "ದ,ನ",
      "ಅ,ಭಿ",
      "ವಾ,ದ,ನ",
      "ಅ,ಭಿ,ವಾ,ದ,ನ"
    ],
    "B": []
  },
  {
    "L": "ಎ,ಡ,ವ,ರಿ,ಸು",
    "W": [
      "ಸು,ರಿ",
      "ಎ,ಡ",
      "ವ,ರಿ,ಸು",
      "ಎ,ಡ,ವ,ರಿ,ಸು"
    ],
    "B": []
  },
  {
    "L": "ರ,ಜ,ನಿ,ಕಾಂ,ತ",
    "W": [
      "ರ,ಜ,ನಿ",
      "ತ,ನಿ",
      "ಕಾಂ,ತ",
      "ರ,ಜ,ನಿ,ಕಾಂ,ತ"
    ],
    "B": []
  },
  {
    "L": "ಅ,ನ,ವ,ರ,ತ",
    "W": [
      "ಅ,ವ,ರ",
      "ಅ,ವ,ನ",
      "ತ,ರ",
      "ಅ,ನ,ವ,ರ,ತ"
    ],
    "B": [
      "ನ,ವ"
    ]
  },
  {
    "L": "ಅ,ಪ,ರಾ,ಜಿ,ತ",
    "W": [
      "ಅ,ಪ",
      "ತ,ಪ",
      "ಜಿ,ತ",
      "ಅ,ಪ,ರಾ,ಜಿ,ತ"
    ],
    "B": [
      "ಪ,ರಾ,ಜಿ,ತ"
    ]
  },
  {
    "L": "ಪ,ರಿ,ಗ,ಣಿ,ಸು",
    "W": [
      "ಪ,ರಿ",
      "ಸು,ರಿ",
      "ಗ,ರಿ",
      "ಪ,ರಿ,ಗ,ಣಿ,ಸು"
    ],
    "B": [
      "ಗ,ಣಿ"
    ]
  },
  {
    "L": "ಕ,ಸ,ಪೊ,ರ,ಕೆ",
    "W": [
      "ಕ,ಸ",
      "ಸ,ರ",
      "ಪೊ,ರ,ಕೆ",
      "ಕ,ಸ,ಪೊ,ರ,ಕೆ"
    ],
    "B": []
  },
  {
    "L": "ಕ,ಸ,ಬು,ದಾ,ರ",
    "W": [
      "ದಾ,ರ",
      "ಕ,ಸ",
      "ಕ,ಸ,ಬು,ದಾ,ರ"
    ],
    "B": [
      "ಕ,ಸ,ಬು",
      "ದಾಸ",
      "ಸದಾ",
      "ಕಸ",
      "ಕರ"

    ]
  },
  {
    "L": "ದಿ,ವಾ,ನ,ಗಿ,ರಿ",
    "W": [
      "ಗಿ,ರಿ",
      "ನ,ರಿ",
      "ದಿ,ವಾ,ನ",
      "ದಿ,ವಾ,ನ,ಗಿ,ರಿ"
    ],
    "B": [
      "ವಾ,ನ"
    ]
  },
  {
    "L": "ಪ,ರಿ,ಹ,ರಿ,ಸು",
    "W": [
      "ಪ,ರಿ",
      "ಹ,ರಿ",
      "ಸು,ರಿ",
      "ಪ,ರಿ,ಹ,ರಿ,ಸು"
    ],
    "B": [
      "ಹ,ರಿ,ಸು"
    ]
  },
  {
    "L": "ಅ,ನು,ಕ,ರಿ,ಸು",
    "W": [
      "ಅ,ನು",
      "ಕ,ರಿ",
      "ಸು,ರಿ",
      "ಅ,ನು,ಕ,ರಿ,ಸು"
    ],
    "B": []
  },
  {
    "L": "ಅ,ಭಿ,ಸಾ,ರಿ,ಕೆ",
    "W": [
      "ಸಾ,ರಿ",
      "ಸಾ,ರಿ,ಕೆ",
      "ಕೆ,ರಿ",
      "ಅ,ಭಿ,ಸಾ,ರಿ,ಕೆ"
    ],
    "B": [
      "ಅ,ಭಿ"
    ]
  },
  {
    "L": "ಕಾ,ಮ,ದ,ಹ,ನ",
    "W": [
      "ಕಾ,ಮ",
      "ಮ,ದ",
      "ಮ,ನ",
      "ಕಾ,ಮ,ದ,ಹ,ನ"
    ],
    "B": [
      "ದ,ಹ,ನ",
      "ಮ,ದ,ನ"
    ]
  },
  {
    "L": "ಕ,ನ,ವ,ರಿ,ಸು",
    "W": [
      "ವ,ನ",
      "ನ,ವ",
      "ಸು,ರಿ",
      "ಕ,ನ,ವ,ರಿ,ಸು"
    ],
    "B": [
      "ಕ,ವ,ನ"
    ]
  },
  {
    "L": "ಅ,ಸಾ,ಧಾ,ರ,ಣ",
    "W": [
      "ರ,ಣ",
      "ಧಾ,ರ,ಣ",
      "ಸಾ,ಧಾ,ರ,ಣ",
      "ಅ,ಸಾ,ಧಾ,ರ,ಣ"
    ],
    "B": []
  },
  {
    "L": "ಅ,ಧಿ,ಗ,ಮ,ನ",
    "W": [
      "ಮ,ನ",
      "ಮ,ಗ",
      "ಗ,ಮ,ನ",
      "ಅ,ಧಿ,ಗ,ಮ,ನ"
    ],
    "B": []
  },
  {
    "L": "ಗ,ಣ,ದೇ,ವ,ತೆ",
    "W": [
      "ಗ,ಣ",
      "ದೇ,ವ",
      "ದೇ,ವ,ತೆ",
      "ಗ,ಣ,ದೇ,ವ,ತೆ"
    ],
    "B": []
  },
  {
    "L": "ಉ,ಪ,ಕ,ರಿ,ಸು",
    "W": [
      "ಪ,ರಿ",
      "ಕ,ರಿ",
      "ಸು,ರಿ",
      "ಉ,ಪ,ಕ,ರಿ,ಸು"
    ],
    "B": []
  },
  {
    "L": "ಅ,ಭಿ,ಗ,ಮ,ನ",
    "W": [
      "ಅ,ಭಿ",
      "ಮ,ನ",
      "ಮ,ಗ",
      "ಅ,ಭಿ,ಗ,ಮ,ನ"
    ],
    "B": [
      "ಗ,ಮ,ನ"
    ]
  },
  {
    "L": "ಪ,ದ,ಕ,ಮ,ಲ",
    "W": [
      "ಪ,ದ",
      "ಮ,ಲ",
      "ಕ,ಮ,ಲ",
      "ಪ,ದ,ಕ,ಮ,ಲ"
    ],
    "B": [
      "ಕ,ದ"
    ]
  },
  {
    "L": "ಆ,ಕಾ,ಶ,ವಾ,ಣಿ",
    "W": [
      "ಆ,ಕಾ,ಶ",
      "ವಾ,ಣಿ",
      "ಆ,ಕಾ,ಶ,ವಾ,ಣಿ"
    ],
    "B": []
  },
  {
    "L": "ಅ,ಪ,ರ,ಭಾ,ಗ",
    "W": [
      "ಭಾ,ರ",
      "ಭಾ,ಗ",
      "ಅ,ಪ,ರ",
      "ಅ,ಪ,ರ,ಭಾ,ಗ"
    ],
    "B": []
  },
  {
    "L": "ಅ,ಮ,ರಾ,ವ,ತಿ",
    "W": [
      "ಅ,ತಿ",
      "ಮ,ತಿ",
      "ಅ,ರಾ,ತಿ",
      "ಅ,ಮ,ರಾ,ವ,ತಿ"
    ],
    "B": []
  },
  {
    "L": "ಹ,ಯ,ವ,ದ,ನ",
    "W": [
      "ಹ,ದ",
      "ವ,ದ,ನ",
      "ಹ,ವ,ನ",
      "ಹ,ಯ,ವ,ದ,ನ"
    ],
    "B": [
      "ಹ,ಯ",
      "ವ,ನ"
    ]
  },
  {
    "L": "ತ,ಡ,ವ,ರಿ,ಸು",
    "W": [
      "ಸು,ರಿ",
      "ತ,ಡ",
      "ತ,ರಿ",
      "ತ,ಡ,ವ,ರಿ,ಸು"
    ],
    "B": [
      "ವ,ಸು",
      "ವ,ರಿ,ಸು"
    ]
  },
  {
    "L": "ಪ,ರಿ,ತ,ಪಿ,ಸು",
    "W": [
      "ಪ,ರಿ",
      "ಸು,ರಿ",
      "ತ,ಪ",
      "ಪ,ರಿ,ತ,ಪಿ,ಸು"
    ],
    "B": [
      "ತ,ರಿ",
      "ತ,ಪಿ,ಸು"
    ]
  },
  {
    "L": "ಕ,ಲ,ಬೆ,ರ,ಕೆ",
    "W": [
      "ಕ,ರ",
      "ಕೆ,ರ",
      "ಬೆ,ರ,ಕೆ",
      "ಕ,ಲ,ಬೆ,ರ,ಕೆ"
    ],
    "B": []
  },
  {
    "L": "ತ,ದ,ನಂ,ತ,ರ",
    "W": [
      "ನಂ,ತ,ರ",
      "ದ,ರ",
      "ನಂ,ದ",
      "ತ,ದ,ನಂ,ತ,ರ"
    ],
    "B": []
  },
  {
    "L": "ಜ,ಗ,ಜ,ಗಿ,ಸು",
    "W": [
      "ಗ,ಜ",
      "ಜ,ಗ",
      "ಜ,ಗಿ",
      "ಜ,ಗ,ಜ,ಗಿ,ಸು"
    ],
    "B": []
  },
  {
    "L": "ಅ,ವ,ಲೋ,ಕ,ನ",
    "W": [
      "ಅ,ವ,ನ",
      "ಲೋ,ಕ",
      "ವ,ನ",
      "ಅ,ವ,ಲೋ,ಕ,ನ"
    ],
    "B": [
      "ನ,ವ"
    ]
  },
  {
    "L": "ಪ್ರ,ತಿ,ಪಾ,ದ,ಕ",
    "W": [
      "ಪ್ರ,ತಿ",
      "ಪಾ,ದ",
      "ಕ,ದ",
      "ಪ್ರ,ತಿ,ಪಾ,ದ,ಕ"
    ],
    "B": [
      "ಪಾ,ಕ"
    ]
  },
  {
    "L": "ಸಂ,ಗೀ,ತ,ಮ,ಯ",
    "W": [
      "ಗೀ,ತ",
      "ಯ,ಮ",
      "ಸಂ,ಗೀ,ತ",
      "ಸಂ,ಗೀ,ತ,ಮ,ಯ"
    ],
    "B": [
      "ಮ,ಯ"
    ]
  },
  {
    "L": "ಅ,ನು,ಭ,ವಿ,ಸು",
    "W": [
      "ಅ,ನು",
      "ಭ,ವಿ",
      "ಅ,ಸು",
      "ಅ,ನು,ಭ,ವಿ,ಸು"
    ],
    "B": [
      "ಅ,ನು,ಭ,ವಿ"
    ]
  },
  {
    "L": "ಅ,ನು,ಸ,ರ,ಣೀ,ಯ",
    "W": [
      "ಅ,ನು",
      "ಸ,ರ",
      "ರ,ಸ",
      "ಅ,ನು,ಸ,ರ,ಣೀ,ಯ"
    ],
    "B": []
  },
  {
    "L": "ಅ,ವ,ಮಾ,ನ,ಕ,ರ",
    "W": [
      "ಅ,ವ,ರ",
      "ಕ,ರ",
      "ಮಾ,ನ",
      "ಅ,ವ,ಮಾ,ನ,ಕ,ರ"
    ],
    "B": [
      "ಅ,ವ,ಮಾ,ನ"
    ]
  },
  {
    "L": "ಸ,ಹ,ನ,ಶೀ,ಲ,ತೆ",
    "W": [
      "ಸ,ಹ",
      "ಲ,ತೆ",
      "ಶೀ,ಲ",
      "ಸ,ಹ,ನ,ಶೀ,ಲ,ತೆ"
    ],
    "B": []
  },
  {
    "L": "ಅ,ಶ,ರೀ,ರ,ವಾ,ಣಿ",
    "W": [
      "ವಾ,ರ",
      "ವಾ,ಣಿ",
      "ಶ,ರೀ,ರ",
      "ಅ,ಶ,ರೀ,ರ,ವಾ,ಣಿ"
    ],
    "B": []
  },
  {
    "L": "ಉ,ರ,ಗ,ಶ,ಯ,ನ",
    "W": [
      "ಉ,ರ,ಗ",
      "ನ,ಗ,ರ",
      "ಗ,ರ",
      "ಉ,ರ,ಗ,ಶ,ಯ,ನ"
    ],
    "B": [
      "ನ,ಯ",
      "ಶ,ಯ,ನ"
    ]
  },
  {
    "L": "ಆ,ಗ್ರ,ಹ,ಪೂ,ರ್ವ,ಕ",
    "W": [
      "ಗ್ರ,ಹ",
      "ಆ,ಗ್ರ,ಹ",
      "ಪೂ,ರ್ವ,ಕ",
      "ಆ,ಗ್ರ,ಹ,ಪೂ,ರ್ವ,ಕ"
    ],
    "B": []
  },
  {
    "L": "ಚ,ಪಂ,ರ್ಷಿ,ಕ,ವಾ",
    "W": [
      "ಪಂ,ಚ,ವಾ,ರ್ಷಿ,ಕ",
      "ವಾ,ರ್ಷಿ,ಕ",
      "ಪಂ,ಚ"
    ],
    "B": []
  },
  {
    "L": "ಸ,ಲ,ಕಾ,ನ್ಮಾ,ನ",
    "W": [
      "ಸ,ನ್ಮಾ,ನ",
      "ಕಾ,ಲ",
      "ಸ,ಕಾ,ಲ"
    ],
    "B": []
  },
  {
    "L": "ವಿ,ಮು,ಪ,ಖ,ತ್ತು",
    "W": [
      "ವಿ,ಮು,ಖ",
      "ಮು,ತ್ತು",
      "ವಿ,ಪ,ತ್ತು",
      "ಮು,ಖ"
    ],
    "B": []
  },
  {
    "L": "ರಾ,ಕಾ,ಣಿ,ಜ,ರ",
    "W": [
      "ರಾ,ಜ",
      "ರಾ,ಜ,ಕಾ,ರ,ಣಿ",
      "ರಾ,ಣಿ",
      "ರ,ಜ"
    ],
    "B": []
  },
  {
    "L": "ಕುಂ,ಭ,ಬಾ,ಕ್ತ,ರ",
    "W": [
      "ಭ,ಕ್ತ",
      "ಕುಂ,ಭ",
      "ಕುಂ,ಬಾ,ರ",
      "ರ,ಕ್ತ"
    ],
    "B": []
  },
  {
    "L": "ರೆ,ಬ,ದು,ಕೆ,ಕು",
    "W": [
      "ಬ,ದು,ಕು",
      "ಕು,ದು,ರೆ",
      "ಬ,ರೆ",
      "ಕೆ,ರೆ"
    ],
    "B": []
  },
  {
    "L": "ಹ,ಕೆ,ವು,ಲ,ಸಾ",
    "W": [
      "ಕೆ,ಲ,ವು",
      "ಹ,ಲ,ವು",
      "ಸಾ,ಲ",
      "ಸಾ,ವು"
    ],
    "B": []
  },
  {
    "L": "ಮೋ,ಸ,ಕ್ಷ,ರಾ,ಗ",
    "W": [
      "ಮೋ,ಸ",
      "ಮೋ,ಕ್ಷ",
      "ರಾ,ಕ್ಷ,ಸ",
      "ಸ,ರಾ,ಗ",
      "ರಾ,ಗ"
    ],
    "B": []
  },
  {
    "L": "ಸು,ವಾ,ನೆ,ಸ,ಮ",
    "W": [
      "ಸು,ವಾ,ಸ,ನೆ",
      "ವಾ,ಸ,ನೆ",
      "ಸು,ಮ",
      "ಮ,ನೆ",
      "ವಾ,ಸ"
    ],
    "B": [
      "ಸ,ಮ"
    ]
  },
  {
    "L": "ರ,ಕ್ಷ,ಭ,ಕ,ಸ",
    "W": [
      "ರ,ಕ್ಷ,ಕ",
      "ಭ,ಕ್ಷ,ಕ",
      "ರ,ಕ್ಷ",
      "ರ,ಭ,ಸ",
      "ಸ,ರ"
    ],
    "B": [
      "ಕ,ಸ"
    ]
  },
  {
    "L": "ಬೀ,ನ,ಗ,ಜ,ರಿ",
    "W": [
      "ಬೀ,ಜ",
      "ಜ,ಗ",
      "ಬೀ,ಗ",
      "ಜ,ನ",
      "ಗ,ರಿ"
    ],
    "B": [
      "ಜ,ರಿ"
    ]
  },
  {
    "L": "ಯ,ಉ,ಪಾ,ಶ,ಳು",
    "W": [
      "ಉ,ಪಾ,ಯ",
      "ಪಾ,ಯ",
      "ಪಾ,ಳು",
      "ಉ,ಳು",
      "ಯ,ಶ"
    ],
    "B": [
      "ಪಾ,ಶ"
    ]
  },
  {
    "L": "ತ್ರು,ಶ,ವಿ,ಕ,ನಾ",
    "W": [
      "ಶ,ತ್ರು",
      "ವಿ,ನಾ,ಶ",
      "ನಾ,ಶ",
      "ವಿ,ನಾ,ಶ,ಕ",
      "ಕ,ವಿ"
    ],
    "B": [
      "ನಾ,ವಿ,ಕ"
    ]
  },
  {
    "L": "ಭಾ,ತ,ರ,ಹಾ,ಮ",
    "W": [
      "ಮ,ಹಾ",
      "ಮ,ತ",
      "ತ,ರ",
      "ಹಾ,ರ",
      "ಭಾ,ರ"
    ],
    "B": [
      "ಮ,ರ"
    ]
  },
  {
    "L": "ಜ,ನಿ,ವ,ನ,ಜೀ",
    "W": [
      "ನಿ,ಜ",
      "ಜೀ,ವ,ನ",
      "ನಿ,ಜ,ಜೀ,ವ,ನ",
      "ವ,ನ",
      "ಜ,ನ"
    ],
    "B": [
      "ಜೀ,ವ",
      "ನ,ವ"
    ]
  },
  {
    "L": "ಣೆ,ಪ,ರ,ದ,ಕ್ಷ",
    "W": [
      "ಪ,ದ",
      "ದ,ರ",
      "ರ,ಕ್ಷ,ಣೆ",
      "ದ,ಕ್ಷ",
      "ರ,ಕ್ಷ"
    ],
    "B": [
      "ಪ,ಕ್ಷ",
      "ಪ,ದ,ರ"
    ]
  },
  {
    "L": "ಮಾ,ನ,ರಿ,ದ,ಸ",
    "W": [
      "ಮಾ,ದ,ರಿ",
      "ಮಾ,ರಿ",
      "ಮಾ,ನ",
      "ಮಾ,ಸ",
      "ದ,ನ"
    ],
    "B": [
      "ನ,ರಿ",
      "ಸ,ರಿ",
      "ಸ,ದ,ರಿ"
    ]
  },
  {
    "L": "ಮೆ,ಕ್ಷ,ಕ,ವೀ,ಣೆ,ರು",
    "W": [
      "ಕ್ಷ,ಮೆ",
      "ಕ,ರು,ಣೆ",
      "ವೀ,ಕ್ಷ,ಣೆ",
      "ವೀ,ಣೆ"
    ],
    "B": []
  },
  {
    "L": "ರ್ಗ,ಮಾ,ಕ,ಜ,ರಾ,ವಿ",
    "W": [
      "ಕ,ವಿ",
      "ರಾ,ಜ",
      "ಮಾ,ರ್ಗ",
      "ವಿ,ರಾ,ಜ",
      "ಜ,ಮಾ"
    ],
    "B": []
  },
  {
    "L": "ಸ,ಗೆ,ಮ,ರ,ಪ,ಳಿ",
    "W": [
      "ಮ,ಳಿ,ಗೆ",
      "ಸ,ರ,ಪ,ಳಿ",
      "ಸ,ರ",
      "ರ,ಸ",
      "ಸ,ಮ"
    ],
    "B": []
  },
  {
    "L": "ಉ,ಗ,ರ,ಳೆ,ನ್ನ,ಅ",
    "W": [
      "ಉ,ರ,ಗ",
      "ರ,ಗ,ಳೆ",
      "ರ,ನ್ನ",
      "ಅ,ನ್ನ",
      "ಅ,ರ"
    ],
    "B": []
  },
  {
    "L": "ವು,ಸ,ಲ,ಕೆ,ನೆ,ಮ",
    "W": [
      "ಮ,ನೆ",
      "ಕೆ,ಲ,ಸ",
      "ಕೆ,ಲ,ವು",
      "ಸ,ಮ",
      "ನೆ,ಲ"
    ],
    "B": []
  },
  {
    "L": "ಟ,ವಿ,ಕ,ನ,ಹ,ವಾ",
    "W": [
      "ವಾ,ಹ,ನ",
      "ಕ,ವಿ",
      "ವಾ,ಹ,ಕ",
      "ವಿ,ಕ,ಟ",
      "ಹ,ಟ"
    ],
    "B": []
  },
  {
    "L": "ಆ,ಲ,ಗ,ಮ,ರ,ಸ",
    "W": [
      "ಆ,ಗ,ಸ",
      "ಸ,ಮ,ರ",
      "ಮ,ರ",
      "ಸ,ರ",
      "ಸ,ಲ,ಗ"
    ],
    "B": [
      "ಆ,ಗ,ರ"
    ]
  },
  {
    "L": "ಗು,ಸ,ನ,ಷ,ಶ್ವಾ,ವಿ",
    "W": [
      "ವಿ,ಷ",
      "ವಿ,ಶ್ವಾ,ಸ",
      "ಶ್ವಾ,ನ",
      "ಶ್ವಾ,ಸ",
      "ನ,ಗು"
    ],
    "B": [
      "ಸ,ವಿ"
    ]
  },
  {
    "L": "ಕ,ಣ,ಡಿ,ಗು,ಧ,ಗಂ",
    "W": [
      "ಗಂ,ಧ,ಕ",
      "ಗಂ,ಧ",
      "ಗು,ಡಿ",
      "ಗು,ಣ",
      "ಕ,ಣ"
    ],
    "B": [
      "ಕ,ಡಿ"
    ]
  },
  {
    "L": "ಡಿ,ಬ್ಬ,ಣ,ದಿ,ಗಾ,ಯು",
    "W": [
      "ಯು,ಗಾ,ದಿ",
      "ಗಾ,ಡಿ",
      "ಗಾ,ದಿ",
      "ದಿ,ಬ್ಬ,ಣ",
      "ಗಾ,ಣ"
    ],
    "B": [
      "ದಿ,ಬ್ಬ"
    ]
  },
  {
    "L": "ಸ,ರ,ತ,ನೀ,ವ,ನ",
    "W": [
      "ನ,ವ,ನೀ,ತ",
      "ನ,ರ",
      "ರ,ಸ",
      "ವ,ರ",
      "ಸ,ರ"
    ],
    "B": [
      "ತ,ರ"
    ]
  },
  {
    "L": "ಮ,ಗ,ರಾ,ಯ,ಷ,ವಿ",
    "W": [
      "ವಿ,ಷ,ಯ",
      "ವಿ,ಷ",
      "ರಾ,ಯ",
      "ರಾ,ಗ",
      "ವಿ,ರಾ,ಗ"
    ],
    "B": []
  },
  {
    "L": "ಕ್ಕು,ಯ,ತಾ,ಸು,ಳಿ,ಉ",
    "W": [
      "ಉ,ಳಿ,ತಾ,ಯ",
      "ಉ,ಳಿ,ಸು",
      "ಉ,ಕ್ಕು",
      "ಸು,ಕ್ಕು",
      "ತಾ,ಳಿ"
    ],
    "B": [
      "ತಾ,ಸು"
    ]
  },
  {
    "L": "ಸು,ತ್ತು,ಕು,ಮ,ಹ,ಳೆ",
    "W": [
      "ಸು,ತ್ತು",
      "ಕು,ತ್ತು",
      "ಕು,ಸು,ಮ",
      "ಹ,ಸು,ಳೆ",
      "ಮ,ತ್ತು"
    ],
    "B": [
      "ಮ,ಳೆ"
    ]
  },
  {
    "L": "ತ್ರೆ,ರಿ,ಚ,ನ,ವ,ಜೀ",
    "W": [
      "ಜೀ,ವ,ನ,ಚ,ರಿ,ತ್ರೆ",
      "ಜೀ,ವ,ನ",
      "ಚ,ರಿ,ತ್ರೆ",
      "ವ,ನ",
      "ನ,ರಿ"
    ],
    "B": [
      "ವ,ಚ,ನ",
      "ಜೀ,ವ"
    ]
  },
  {
    "L": "ಗ,ಶ,ಮೆ,ಯ,ಜ,ವಿ",
    "W": [
      "ವಿ,ಜ,ಯ",
      "ವಿ,ಮೆ",
      "ಜ,ಮೆ",
      "ಯ,ಶ",
      "ಜ,ಗ"
    ],
    "B": [
      "ಜ,ಯ",
      "ಗ,ಜ"
    ]
  },
  {
    "L": "ವಿ,ಮು,ಸ,ಭ,ಕ್ತ,ರ",
    "W": [
      "ರ,ಕ್ತ",
      "ಭ,ಕ್ತ",
      "ರ,ಸ",
      "ರ,ಭ,ಸ",
      "ಮು,ಕ್ತ"
    ],
    "B": [
      "ರ,ವಿ",
      "ಸ,ವಿ"
    ]
  },
  {
    "L": "ದ್ದ,ಕ,ಸಿ,ಕ್ಕು,ನ,ದಿ",
    "W": [
      "ದಿ,ನ",
      "ನ,ಕ್ಕು",
      "ದಿ,ಕ್ಕು",
      "ದಿ,ನ,ಸಿ",
      "ಸಿ,ದ್ದ"
    ],
    "B": [
      "ಕ,ಸಿ",
      "ಕ,ದ್ದ"
    ]
  },
  {
    "L": "ತ್ತು,ಲಿ,ಕ,ಳ,ಗ,ಜ",
    "W": [
      "ಜ,ಗ,ಳ",
      "ಜ,ಳ,ಕ",
      "ಕ,ಲಿ",
      "ಜ,ಗ",
      "ಜ,ಗ,ಲಿ"
    ],
    "B": [
      "ಜ,ಗ,ತ್ತು",
      "ಕ,ತ್ತು"
    ]
  },
  {
    "L": "ಕಾ,ಯಿ,ವಿ,ಕ,ಯ,ನಾ",
    "W": [
      "ನಾ,ಯ,ಕ",
      "ನಾ,ವಿ,ಕ",
      "ಕ,ವಿ",
      "ಕಾ,ಯ,ಕ",
      "ಕಾ,ಯಿ"
    ],
    "B": [
      "ಕಾ,ವಿ",
      "ನಾ,ಯಿ",
      "ಕಾ,ಯ"
    ]
  },
  {
    "L": "ತ,ಕ್ಷೆ,ರ,ವಿ,ನ,ಮ",
    "W": [
      "ಮ,ನ,ವಿ",
      "ಮ,ನ",
      "ನ,ರ",
      "ಮ,ರ",
      "ರ,ಕ್ಷೆ"
    ],
    "B": [
      "ವಿ,ರ,ತ",
      "ನ,ಕ್ಷೆ",
      "ತ,ರ",
      "ರ,ವಿ"
    ]
  },
  {
    "L": "ತಿ,ಪ,ಗ,ಣ,ಜ,ರ",
    "W": [
      "ರ,ಜ",
      "ಗ,ಣ,ಪ,ತಿ",
      "ರ,ಣ",
      "ಜ,ಗ",
      "ಗ,ಣ"
    ],
    "B": [
      "ಪ,ತಿ",
      "ಗ,ತಿ",
      "ಗ,ರ",
      "ಪ,ಣ",
      "ಗ,ಜ"
    ]
  },
  {
    "L": "ಗು,ಕ್ಷೆ,ಗ,ರ,ಕ,ನ",
    "W": [
      "ಕ,ರ,ಗ",
      "ನ,ರ,ಕ",
      "ನ,ಗ,ರ",
      "ನ,ರ",
      "ಕ,ರ,ಗು"
    ],
    "B": [
      "ನ,ಕ್ಷೆ",
      "ರ,ಕ್ಷೆ",
      "ನ,ಗು",
      "ಗ,ರ"
    ]
  }
]
