{
  "104552591340389": {
    "ENGLISH": {
      "currentLevel": 110,
      "coinCount": 2165
    },
    "HINDI": {
      "currentLevel": 2,
      "coinCount": 2165
    },
    "KANNADA": {
      "currentLevel": 95,
      "coinCount": 2165
    }
  }
}
