{
    "Settings": "સેટિંગ્સ",
    "Sound": "અવાજ",
    "Music": "સંગીત",
    "Notification": "સુચના",
    "Language": "ભાષા",
    "HowToPlay": "કઈ રીતે રમવાનું",
    "Feedback": "મંતવ્ય",
    "Rate": "રેટ",
    "Share": "શેર",
    "Exit": "બહાર",
    "ExitMsg1": "શું તમે ખરેખર બહાર નીકળવા માંગો છો?",
    "QuitMsg1": "રમત છોડવી છે?",
    "QuitMsg2": "શું તમે ખરેખર છોડવા માંગો છો?",
    "Yes": "હા",
    "No": "ના",
    "Achievements": "સિદ્ધિઓ",
    "Completed": "પૂર્ણ",
    "Claim": "દાવો ",
    "Claimed": "કર્યો",
    "bonuswords": "બોનસ શબ્દ",
    "bonusMsg": "એવા શબ્દો મળ્યા કે જે પઝલ માં નથી સિક્કા મેળવવા માટે બોનસ શબ્દ સાથે બાર ભરો !",
    "GiftMsg": "તમને રહસ્યમયી ગીફ્ટ બોક્સ મળ્યું",
    "ReportWord": "શબ્દને રીપોર્ટ કરો",
    "ReportMsg": "જો તમને લાગે છે કે કેટલાક શબ્દો ઉપ્લબ્ધ નથી તો તમે અમને જાણ કરી શકો છો તે રમત ને સુધારવામાં અમને મદદ કરે છે",
    "Send": "મોકલો",
    "Complete": "પૂર્ણ",
    "CountryUnlock": "નવા દેશ અનલોક",
    "CheckOut": "તપાસો",
    "DailyMission": "દૈનિક  મિશન",
    "DailyReward": "દૈનિક ઇનામ",
    "Congrats": "અભિનંદન!",
    "DailyRewardMsg": "૭ દિવસ તમારા પુરસ્કારનો દાવો કરવાનો ભૂલશો નહીં",
    "doubleReward": "બેવડું ઈનામ",
    "Day": "દિવસ",
    "Collect": "ભેગુ કરો",
    "Shop": "દુકાન",
    "RemoveAds": "જાહેરાત દૂર કરો",
    "Buy": "ખરીદો",
    "ForSession": "આ સેશન માટે",
    "WatchVideo": "વિડિયો જોવો",
    "RemoveForever": "હંમેશા માટે દૂર કરો!",
    "limitedSale": "મર્યાદિત  વેચાણ",
    "Coins": "સિક્કા",
    "Buynow": "અત્યારે ખરીદો",
    "FreeCoins": "મફતમાં સિક્કા",
    "VideoMsg": "મફતમાં સિક્કાઓ મેળવવા માટે નાનો વિડિયો જુઓ",
    "Watch": "જુઓ",
    "Next": "આગળ",
    "DoubleCoin": "ડબલ સિક્કાઓ",
    "CoinsCollected": "સિક્કાઓ મેળવો",
    "GiftReward": "ઇનામ",
    "LangMsg": "ભાષા પસંદ કરો જેમાં તમે તમારી રમત રમવા માંગો છો",
    "Confirm": "ચોક્કસ",
    "Achievement1": "૩૦ ગુડ કોમ્બો મેળવો",
    "Achievement2": "૨૫ ગ્રેટ કોમ્બો મેળવો",
    "Achievement3": "૩૦ અમેઝિંગ કોમ્બો મેળવો",
    "Achievement4": "૩૦ ઓસમ કોમ્બો મેળવો",
    "Achievement5": "જોડણી બનાવો ૧૦૦ શબ્દો",
    "Achievement6": "હિન્ટનો ઉપયોગ ૨૫ વખત કરો",
    "Achievement7": "હિન્ટનો ઉપયોગ ૫૦ વખત કરો",
    "Achievement8": "૫૦ વખત અક્ષર (એ) ગણતરી વિકલ્પનો ઉપયોગ કરો",
    "Achievement9": "૫૦ વખત અક્ષર (એ) ગણતરી વિકલ્પનો ઉપયોગ કરો",
    "Achievement10": "૧૦ વાર માટે લેવલના નકશાની ઇનામ ની વસ્તુઓ એકત્રિત કરો",
    "Achievement11": "૨૫ વાર માટે લેવલના નકશાની ઇનામ ની વસ્તુઓ એકત્રિત કરો",
    "Achievement12": "સતત ૧૫ દિવસ માટે રોજ બોનસ એકત્રિત કરો",
    "Achievement13": "૫૦ વખત દૈનિક બોનસ એકત્રિત કરો",
    "Achievement14": "કોઈપણ જોડણીમાં ભૂલ કર્યા વિના કોઈપણ ૫૦ લેવલ પાર કરો",
    "Achievement15": "૨૫ બોનસ શબ્દ એકત્રિત કરો",
    "Achievement16": "૫૦ બોનસ શબ્દ એકત્રિત કરો",
    "Achievement17": "ભારતના તમામ લેવલ પૂર્ણ કરો",
    "Achievement18": "અમેરિકાના તમામ સ્તરો પૂર્ણ કરો",
    "Achievement19": "ઓસ્ટ્રેલિયાના તમામ સ્તરો પૂર્ણ કરો",
    "Achievement20": "ઇંગ્લેન્ડના તમામ સ્તરો પૂર્ણ કરો",
    "Achievement21": "રશિયાના તમામ સ્તરો પૂર્ણ કરો",
    "Achievement22": "ઈન્ડોનેશિયાના તમામ સ્તરો પૂર્ણ કરો",
    "Achievement23": "જાપાનના તમામ સ્તરો પૂર્ણ કરો",
    "Achievement24": "બ્રાઝિલના તમામ સ્તરો પૂર્ણ કરો",
    "Achievement25": "ફ્રાંસના તમામ સ્તરો પૂર્ણ કરો",
    "Achievement26": "કેનેડાના તમામ સ્તરો પૂર્ણ કરો",
    "Achievement27": "જર્મનીના તમામ સ્તરો પૂર્ણ કરો",
    "MissionComplete": "મિશન પૂર્ણ",
    "AchievementComplete": "સિદ્ધિઓ અનલોક થઈ",
    "Mission1": "જોડણી બનાવો ૨૫ શબ્દ",
    "Mission2": "પુરા કરો ૨૫ લેવલ",
    "Mission3": "૨૫ ગુડ કોમ્બો મેળવો",
    "Mission4": "૩૦ ગ્રેટ કોમ્બો મેળવો",
    "mission5": "જોડણી બનાવો ૫૦ શબ્દો",
    "Mission6": "૧૦ સખત હિન્ટ ઉપયોગ કરો",
    "Mission7": "૨૫ અમેઝિંગ કોમ્બો મેળવો",
    "Mission8": "૨૫ ઓસમ કોમ્બો મેળવો",
    "Mission9": "જોડણી બનાવો ૨૫ શબ્દ",
    "Mission10": "૧૦ વખત અક્ષર (એ) ગણતરી વિકલ્પનો ઉપયોગ કરો",
    "Mission11": "પાંચ વખત માટે સ્થળ નકશાની ગિફ્ટ આઈટમ નો સંગ્રહ કરો",
    "Mission12": "ખોટી જોડણી કર્યા વિના કોઈપણ 10 સ્તરો પાર કરો",
    "Mission13": "જોડણી બનાવો ૫૦ શબ્દ",
    "Mission14": "૧૦ બોનસ શબ્દ એકત્રિત કરો",
    "Mission15": "૨૫ ગુડ કોમ્બો મેળવો",
    "Mission16": "૧૦ વખત અક્ષર (એ) ગણતરી વિકલ્પનો ઉપયોગ કરો",
    "Mission17": "જોડણી બનાવો ૨૫ શબ્દ",
    "Mission18": "૧૦ વખત હિન્ટ ઉપયોગ કરો",
    "Mission19": "૧૦ બોનસ શબ્દ એકત્રિત કરો",
    "Mission20": "ખોટી જોડણી કર્યા વિના કોઈપણ 10 લેવલ પાર કરો",
    "Tutorfirst": "શબ્દ રચના માટે અક્ષરને જોડો",
    "TutorHint": "વધારાના સંકેત શોધવા માટે હિન્ટ નો ઉપયોગ કરો!",
    "TutorShuffle": "જ્યારે તમે અટકી ગયા હોય ત્યારે શબ્દોને ફરીથી ગોઠવવા માટે સફલ નો ઉપયોગ કરો!",
    "TutorFreq": "આ લેવલમાં અક્ષરો કેટલી વાર આવે છે તે જાણવા માટે ઉપયોગ કરો લેટર - ફીકવન્સી બટન નો ઉપયોગ કરો.",
    "Play": "રમો",
    "MorePuzzle": "તમે તમારા લેવલ પૂર્ણ કરી દીધા છે હવે અને વધારે લેવલ અપડેટ કરીશું",
    "LetterInfo": "'લેટર ફીકવન્સી વિકલ્પ સાત પર અનલોક કરવામાં આવશે",
    "Ok": "બરાબર",
    "MissionStart": "નવું મિશન અહીંયા થી ચાલુ થાય છે",
    "MissionEnd": "મિશન અહીંયા પૂર્ણ થાય છે",
    "RateTitle": "તમે આ રમતને રેટ કરવા માંગો છો ?",
    "RateMsg": "તમારી રેટિંગ અમને રમતમાં અપડેટ પ્રદાન કરવામાં સહાય કરે છે!",
    "CompletedAgain": "ફરીથી પૂર્ણ!",
    "Gift": "ઇનામ",
    "NewGift": "નવું ઇનામ અનલોક",
    "Install": "ઇન્સ્ટોલ કરો",
    "bonusToast":"બોનસ શબ્દ",
  "bonusToast_1":"બોનસ શબ્દ પહેલાથી મળી ગયો છે",
  "swipeToast":"અક્ષરો સ્વાઇપ કરો",
  "wrongToast":"ખોટો શબ્દ",
  "alreadyFound":"તમને આ શબ્દ પહેલેથી મળી ગયો છે!",
  "Task":"નવું કાર્ય",
  "Taskcomplete":"કાર્ય પૂર્ણ થયું",
  "Free": "મફત",
  "India":"ઇન્ડિયા",
  "America":"અમેરિકા",
  "Australia":"ઓસ્ટ્રેલિયા",
  "England":"ઇંગ્લેન્ડ",
  "Russia":"રશિયા",
  "Indonesia":"ઇન્ડોનેશિયા",
  "Japan":"જાપાન",
  "Brazil":"બ્રાઝિલ",
  "France":"ફ્રાન્સ",
  "Canada":"કેનેડા",
  "German":"જમૅની",
  "NoInternet":"ઇન્ટરનેટ કનેક્શન નથી",
  "NotNow":"અત્યારે નહિ",
  "sendFeedback":"પ્રતિભાવ આપો",
  "RateInfo":"તમે વર્ડ પ્રોને કેવી રીતે રેટ કરશો?",
  "RateInfo_1":"તે ખરાબ છે. તેના બદલે તમે અમને પ્રતિક્રિયા આપવા માંગો છો?",
  "RateInfo_2":"અમને જણાવો કે તમારી રમતમાં શું ખૂટે છે. અમે ગેમને સુધારવાનો પ્રયત્ન કરીશું",
  "RateInfo_3":"તમારા મિત્રો સાથે શેર કરો",
  "RateInfo_4":"અદ્ભુત! ચાલો તે કરીએ!",
  "RateNow":"હવે ભાવ જણાવો",
  "Leaderboard":"લીડરબોર્ડ",
  "NoPlayers":"રેન્કિંગ મેળવવા માટે રમવાનું પ્રારંભ કરો",
  "FbInfo":"તમારા મિત્રોની પ્રગતિ જુઓ.તમારા મિત્રોને બદલો અને અનેક ઉપકરણોની આજુબાજુ રમો.",
  "useHint":"સંકેત શોધવા માટે સંકેત વિકલ્પનો ઉપયોગ કરો"
}

