{
	"Settings": "കൃമീകരണം",
	"Sound": "ശബ്ദം",
	"Music": "സംഗീതം",
	"Notification": "അറിയിപ്പുകൾ",
	"Language": "ഭാഷ",
	"HowToPlay": "എങ്ങനെ കളിക്കും",
	"Feedback": "പ്രതികരണം",
	"Rate": "നിരക്ക്",
	"Share": "പങ്കിടുക",
	"Exit": "പുറത്ത്",
	"ExitMsg1": "നിങ്ങൾ പുറത്ത് പോകാൻ ഉറപ്പിച്ചോ ?",
	"QuitMsg1": "കളി ഉപേക്ഷിച്ചോ",
	"QuitMsg2": "നിങ്ങൾ യഥാർത്ഥത്തിൽ പുറത്ത് പോകുന്നോ?",
	"Yes": "അതെ",
	"No": "അല്ല",
	"Achievements": "അംഗീകാരം",
	"Completed": "പൂർത്തിയായി",
	"Claim": "അവകാശം",
	"Claimed": "അവകാശങ്ങൾ",
	"bonuswords": "അധിക വാക്കുകൾ",
	"bonusMsg": "പസിലിൽ ഇല്ലത്ത വാക്കുകൾ കണ്ടെത്തി നാണയങ്ങൾ നേടാൻ ബോണസ് വാക്കുകൾ ഉപയോഗിച്ച് നാണയങ്ങൾ നേടുക",
	"GiftMsg": "നിങ്ങൾക്ക് മിസ്റ്ററി സമ്മാന പെട്ടി ലഭിച്ചു",
	"ReportWord": "വാക്കുകൾ അടയാളപ്പെടുത്തുക",
	"ReportMsg": "കുറച്ച് വാക്കുകൾ നഷ്ടപ്പെട്ടു പോയാൽ റിപ്പോർട്ട് ചെയ്യാം.ഇത് കളിയുടെ പുരോഗതിയെ സഹായിക്കും.",
	"Send": "അയക്കുക",
	"Complete": "പൂർത്തിയായി",
	"CountryUnlock": "പുതിയ രാജ്യം തുറന്നു അത് പരിശോധിക്കുക",
	"CheckOut": "പരിശോധിക്കുക",
	"DailyMission": "ദിവസ പരിപാടി",
	"DailyReward": "ദിവസ അംഗീകാരം",
	"Congrats": "അഭിനന്ദനങ്ങൾ",
	"DailyRewardMsg": "മറക്കരുത് 7 ദിവസങ്ങൾക്ക് ഉള്ളിൽ അംഗീകാരത്തിനുള്ള അവകാശം ലഭിക്കും",
	"doubleReward": "ഇരട്ടി അംഗീകാരം",
	"Day": "ദിവസം",
	"Collect": "ശേഖരണം",
	"Shop": "ഷോപ്",
	"RemoveAds": "ആഡ്സ് കളയുക",
	"Buy": "വാങ്ങുക",
	"ForSession": "ഈ സെക്ഷനിൽ",
	"WatchVideo": "വീഡിയോ കാണുക",
	"RemoveForever": "എന്നന്നേക്കുമായി ഒഴിവാക്കുക",
	"limitedSale": "പരിമിതമായ വിൽപന",
	"Coins": "നാണയങ്ങൾ",
	"Buynow": "ഇപ്പോൾ വാങ്ങുക",
	"FreeCoins": "സൗജന്യ നാണയങ്ങൾ",
	"VideoMsg": "ഈ ചെറിയ വീഡിയോ കണ്ട് നാണയങ്ങൾ നേടുക",
	"Watch": "കാണുക",
	"Next": "അടുത്തത്",
	"DoubleCoin": "ഇരട്ടി നാണയങ്ങൾ",
	"CoinsCollected": "നാണയങ്ങൾ ശേഖരിക്കുക",
	"GiftReward": "സമ്മാനം പാരിതോഷികമായി",
	"LangMsg": "നിങ്ങൾക്ക് ഏത് ഭാഷയിലാണ് കളിക്കേണ്ടതെന്ന് തെരെഞ്ഞെടുക്കുക",
	"Confirm": "ഉറപ്പിച്ചു",
	"Achievement1": "30 ഗുഡ് ചേർച്ചകൾ ലഭിക്കും",
	"Achievement2": "30 ഗേറ്റ്  ചേർച്ചകൾ ലഭിക്കും",
	"Achievement3": "30 അമേസിങ് ചേർച്ചകൾ ലഭിക്കും",
	"Achievement4": "30 ഓസം ചേർച്ചകൾ ലഭിക്കും",
	"Achievement5": "100 വാക്കുകളുടെ സ്പെല്ലിംഗ്",
	"Achievement6": "ഈ സൂചനകൾ 25 പ്രാവശ്യം ഉപയോഗിക്കുക",
	"Achievement7": "ഈ സൂചനകൾ 50 പ്രാവശ്യം ഉപയോഗിക്കുക",
	"Achievement8": "25 തവണ (എ) എന്ന അക്ഷരം  ഉപയോഗിക്കുക",
	"Achievement9": "50 തവണ (എ) എന്ന അക്ഷരം  ഉപയോഗിക്കുക",
	"Achievement10": "ലെവൽ മാപ്പിൻറ സമ്മാന ബോക്സുകൾ 10 തവണ ശേഖരിക്കുക",
	"Achievement11": "ലെവൽ മാപ്പിൻറ സമ്മാന ബോക്സുകൾ 25തവണ ശേഖരിക്കുക",
	"Achievement12": "ദിവസ ബോണസ് തുടർച്ചയായി 15 ദിവസം ശേഖരിക്കുക",
	"Achievement13": "50 തവണ പ്രതിദിന ബോണസ് ശേഖരിക്കുക",
	"Achievement14": "അക്ഷര തെറ്റില്ലാതെ 50 ലെവൽ മായ്ക്കുക",
	"Achievement15": "25 ബോണസ് വാക്കുകൾ ശേഖരിക്കുക",
	"Achievement16": "50 ബോണസ് വാക്കുകൾ ശേഖരിക്കുക",
	"Achievement17": "ഇന്ത്യയിലെ എല്ലാ ലെവലുകളും പൂർത്തിയാക്കുക",
	"Achievement18": "അമേരിക്കയുടെ എല്ലാ ലെവലുകളും പൂർത്തിയാക്കുക",
	"Achievement19": "ആസ്ട്രേലിയയുടെ എല്ലാ ലെവലുകളും പൂർത്തിയാക്കുക",
	"Achievement20": "ലെവലുകളും പൂർത്തിയാക്കുക",
	"Achievement21": "റഷ്യയുടെ എല്ലാ ലെവലുകളും പൂർത്തിയാക്കുക",
	"Achievement22": "ഇന്തോനേഷ്യയുടെ  ലെവലുകളും പൂർത്തിയാക്കുക",
	"Achievement23": "ജപ്പാന്റെഎല്ലാ ലെവലുകളും പൂർത്തിയാക്കുക",
	"Achievement24": "ബൃസീൽൻറ എല്ലാ ലെവലുകളും പൂർത്തിയാക്കുക",
	"Achievement25": "ഫ്രാൻസിലെ എല്ലാ ലെവലുകളും പൂർത്തിയാക്കുക",
	"Achievement26": "കാനഡയുടെ എല്ലാ ലെവലുകളും പൂർത്തിയാക്കുക",
	"Achievement27": "ജർമ്മനിയുടെ എല്ലാ ലെവലുകളും പൂർത്തിയാക്കുക",
	"MissionComplete": "ദൗത്യം പൂർത്തിയാക്കി",
	"AchievementComplete": "നേട്ടം കൈവരിച്ചു",
	"Mission1": "25 വാക്കുകൾ ഉച്ചരിക്കുക",
	"Mission2": "ലെവലുകൾ മായ്ക്കുക",
	"Mission3": "25 ഗുഡ് ചേർച്ചകൾ ലഭിക്കും",
	"Mission4": "25 നല്ല ചേർച്ചകൾ ലഭിക്കും",
	"Mission5": "50 വാക്കുകൾ ഉച്ചരിക്കുക",
	"Mission6": "ഈ സൂചന 10 തവണ ഉപയോഗിക്കുക",
	"Mission7": "25  അമേസിങ് ചേർച്ചകൾ ലഭിക്കും",
	"Mission8": "25 ഓസം ചേർച്ചകൾ ലഭിക്കും",
	"Mission9": "25 വാക്കുകൾ ഉച്ചരിക്കുക.",
	"Mission10": "10തവണ (എ) എന്ന അക്ഷരം  ഉപയോഗിക്കുക",
	"Mission11": "ലെവൽ മാപ്പിൻറ സമ്മാന ബോക്സുകൾ 5തവണ ശേഖരിക്കുക",
	"Mission12": "അക്ഷരതെറ്റുകൾ ഇല്ലാതെ ഏതെങ്കിലും 10 ലെവലുകൾ മായ്ക്കുക",
	"Mission13": "50 വാക്കുകൾ ഉച്ചരിക്കുക",
	"Mission14": "10 അധിക വാക്കുകൾ ശേഖരിക്കുക.",
	"Mission15": "25 ഗുഡ് ചേർച്ചകൾ ലഭിക്കും",
	"Mission16": "10തവണ (എ) എന്ന അക്ഷരം  ഉപയോഗിക്കുക",
	"Mission17": "25 വാക്കുകൾ ഉച്ചരിക്കുക",
	"Mission18": "ഈ സൂചന 10 തവണ ഉപയോഗിക്കുക",
	"Mission19": "അധിക 10 വാക്കുകൾ ശേഖരിക്കുക",
	"Mission20": "അക്ഷര തെറ്റുകൾ ഇല്ലാത്തെ 10 ലെവൽ മായ്ക്കുക",
	"Tutorfirst": "അക്ഷരങ്ങൾ വാക്കുകളുമായി ബന്ധിപ്പിക്കുക",
	"TutorHint": "അധിക സൂചനകൾ കണ്ടെത്താൻ സൂചനകൾ ഉപയോഗിക്കുക",
	"TutorShuffle": "നിങ്ങൾ കുടുങ്ങുമ്പോൾ രക്ഷപ്പെടാൻ കുലുക്കുക",
	"TutorFreq": "ഇവ എത്ര കാണിക്കണമെങ്കിലും ലെറ്റർ ഫ്രീക്വൻസി ബട്ടൺ ഉപയോഗിക്കുക",
    "Play": "കളിക്കുക",
	"MorePuzzle": "നിങ്ങൾ എല്ലാ ലെവലുകളും പൂർത്തിയാക്കി എങ്കിൽ കളി തുടരുക.ഞങ്ങൾ കൂടുതൽ ലെവലുകൾ ഉൾപ്പെടുത്തും",
	"LetterInfo": "ലെവൽ 7നിൽ  അക്ഷരങ്ങളുടെ നീളം തുറക്കെപടും",
	"Ok": "അതെ",
	"MissionStart": "പുതിയ ദൗത്യം ആരംഭിച്ചു",
	"MissionEnd": "ദൗത്യം അവസാനിച്ചു",
	"RateTitle": "ഈ കളിയോടുള്ള ഇഷ്ടത്തിൻറ നിരക്ക് രേഖപ്പെടുത്താമോ?",
	"RateMsg": "നിങ്ങൾ രേഖപ്പെടുത്തിയ നിരക്ക് കളിയുടെ പുരോഗതിയ്ക്ക്  സഹായിക്കും",
	"CompletedAgain": "വീണ്ടും പൂർത്തിയായി",
	"Gift": "സമ്മാനം",
	"NewGift": "പുതിയ സമ്മാനം തുറന്നു",
	"Install": "കയറ്റുക",
	"bonusToast":"ബോണസ് പദം",
  "bonusToast_1":"ബോണസ് പദം ഇതിനകം കണ്ടെത്തി",
  "swipeToast":"അക്ഷരങ്ങൾ സ്വൈപ്പുചെയ്യുക",
  "wrongToast":"തെറ്റായ വാക്ക്",
  "alreadyFound":"നിങ്ങൾ ഇതിനകം ഈ വാക്ക് കണ്ടെത്തി!",
  "Task":"പുതിയ ടാസ്‌ക്",
  "Taskcomplete":"ടാസ്ക് പൂർത്തിയായി",
  "Free": "സൗജന്യ",
  "India":"ഇന്ത്യ",
  "America":"അമേരിക്ക",
  "Australia":"ആസ്ട്രേലിയ",
  "England":"ഇംഗ്ലണ്ട്",
  "Russia":"റഷ്യ",
  "Indonesia":"ഇന്തോനേഷ്യ",
  "Japan":"ജപ്പാൻ",
  "Brazil":"ബ്രസീൽ",
  "France":"ഫ്രാൻസ്",
  "Canada":"കാനഡ",
  "German":"ജർമ്മനി",
  "NoInternet":"ഇന്റർനെറ്റ് കണക്ഷൻ ഇല്ല",
  "NotNow":"ഇപ്പോൾ വേണ്ട",
  "sendFeedback":"ഫീഡ്ബാക്ക് അയയ്ക്കുക",
  "RateInfo":"വേഡ് പ്രോയെ നിങ്ങൾ എങ്ങനെ റേറ്റുചെയ്യും?",
  "RateInfo_1":"അത് മോശമാണ്. പകരം ഞങ്ങൾക്ക് ഫീഡ്‌ബാക്ക് നൽകാൻ നിങ്ങൾ ആഗ്രഹിക്കുന്നുണ്ടോ?",
  "RateInfo_2":"ഞങ്ങളോട് പറയുക ഗെയിമിൽ എന്താണ് കാണാത്തത്. ഗെയിം മെച്ചപ്പെടുത്താൻ ഞങ്ങൾ ശ്രമിക്കും",
  "RateInfo_3":"നിങ്ങളുടെ ചങ്ങാതിമാരുമായി പങ്കിടുക",
  "RateInfo_4":"കൊള്ളാം! അങ്ങിനെ ചെയ്യാം!",
  "RateNow":"ഇപ്പോൾ നിരക്ക്",
  "Leaderboard":"നിലവാരം",
  "NoPlayers":"റാങ്കിംഗ് ലഭിക്കാൻ കളിക്കാൻ ആരംഭിക്കുക",
  "FbInfo":"നിങ്ങളുടെ ചങ്ങാതിമാരുടെ പുരോഗതി കാണുക.നിങ്ങളുടെ ചങ്ങാതിമാരെ വെല്ലുവിളിച്ച് ഒന്നിലധികം ഉപകരണങ്ങളിൽ പ്ലേ ചെയ്യുക",
  "useHint":"സൂചന കണ്ടെത്താൻ സൂചന ഓപ്ഷൻ ഉപയോഗിക്കുക"
}
