{
    "Settings": "सेटिंग्ज",
    "Sound": "आवाज",
    "Music": "संगीत",
    "Notification": "सूचना",
    "Language": "भाषा",
    "HowToPlay": "कसे खेळाल",
    "Feedback": "अभिप्राय",
    "Rate": "रेट करा",
    "Share": "शेअर करा",
    "Exit": "बाहेर जायचे आहे ?",
    "ExitMsg1": "तुम्हाला नक्की बाहेर जायचे आहे का ?",
    "QuitMsg1": "खेळ सोडायचा आहे का?",
    "QuitMsg2": "तुम्हाला खरच खेळ सोडून बाहेर जायचे आहे का?",
    "Yes": "हो",
    "No": "नाही",
    "Achievements": "कामगिरी",
    "Completed": "पूर्ण झालेले",
    "Claim": "क्लेम",
    "Claimed": "क्लेम केलेले",
    "bonuswords": "बोनस शब्द",
    "bonusMsg": "कोड्यामध्ये नसलेले शब्द शोधा. कॉईन्स मिळविण्यासाठी बार बोनस शब्दांद्वारे भरा!",
    "GiftMsg": "तुम्हाला गूढ भेट बॉक्स मिळाला आहे",
    "ReportWord": "शब्द रिपोर्ट करा",
    "ReportMsg": "जर तुम्हाला इथे दिलेला नाही असा शब्द मिळाल्यास तुम्ही आम्हाला रिपोर्ट करू शकता. त्याची आम्हाला खेळ अजून उत्तम बनविण्यास मदत होईल.",
    "Send": "पाठवा",
    "Complete": "पूर्ण",
    "CountryUnlock": "नवीन देश उघडला तो बघा",
    "CheckOut": "बघा",
    "DailyMission": "दैनिक मिशन",
    "DailyReward": "दैनिक बक्षीस",
    "Congrats": "अभिनंदन!",
    "DailyRewardMsg": "7 दिवसांच्या तुमच्या बक्षीसावर हक्क सांगायला विसरू नका.",
    "doubleReward": "दुप्पट बक्षीस",
    "Day": "दिवस",
    "Collect": "जमा करा",
    "Shop": "खरेदी करा",
    "RemoveAds": "जाहिरात काढा",
    "Buy": "विकत घ्या",
    "ForSession": "ह्या सेशन साठी",
    "WatchVideo": "व्हिडिओ बघा",
    "RemoveForever": "कायमचे घालवा!",
    "limitedSale": "मर्यादित सेल",
    "Coins": "कॉईन्स",
    "Buynow": "आत्ताच विकत घ्या",
    "FreeCoins": "मोफत कॉईन्स",
    "VideoMsg": "मोफत कॉईन्स मिळविण्यासाठी लहान व्हिडिओ बघा!",
    "Watch": "बघा",
    "Next": "पुढील",
    "DoubleCoin": "दुप्पट कॉईन",
    "CoinsCollected": "जमा केलेले कॉईन्स",
    "GiftReward": "भेट बक्षीस",
    "LangMsg": "तुम्हाला तुमचा खेळ खेळायचा आहे ती भाषा निवडा",
    "Confirm": "नक्की",
        "Achievement1": "मिळवा 30 गुड कॉम्बो",
            "Achievement2": "मिळवा 30 ग्रेट कॉम्बो",
    "Achievement3": "मिळवा 30 अमेझिंग कॉम्बो",
    "Achievement4": "मिळवा 30 अवेसम कॉम्बो",
    "Achievement5": "100 शब्द लिहा",
    "Achievement6": "25 वेळा मदत वापरा",
    "Achievement7": "मदतीचा पर्याय 50 वेळा वापरा",
    "Achievement8": "अक्षर(A) मोजणी पर्याय 25 वेळा वापरा",
    "Achievement9": "अक्षर(A) मोजणी पर्याय 50 वेळा वापरा",
    "Achievement10": "लेव्हल नकाशाचे भेट बॉक्स आयटम 10 वेळा जमा करा",
    "Achievement11": "लेव्हल नकाशाचे भेट बॉक्स आयटम 25 वेळा जमा करा",
    "Achievement12": "सतत 15 दिवस दैनिक बोनस जमा करा",
    "Achievement13": "दैनिक बोनस 50 वेळा जमा करा",
    "Achievement14": "कोणत्याही 50 लेव्हल शब्द लेखन न चुकवता पूर्ण करा",
    "Achievement15": "25 बोनस शब्द जमा करा",
    "Achievement16": "50 बोनस शब्द जमा करा",
    "Achievement17": "भारताच्या सर्व लेव्हल्स पूर्ण करा",
    "Achievement18": "अमेरिकेच्या सर्व लेव्हल्स पूर्ण करा",
    "Achievement19": "ऑस्ट्रेलियाच्या सर्व लेव्हल्स पूर्ण करा",
    "Achievement20": "इंग्लंडच्या सर्व लेव्हल्स पूर्ण करा",
    "Achievement21": "रशियाच्या सर्व लेव्हल्स पूर्ण करा",
    "Achievement22": "इंडोनेशियाच्या सर्व लेव्हल्स पूर्ण करा",
    "Achievement23": "जपानच्या सर्व लेव्हल्स पूर्ण करा",
    "Achievement24": "ब्राझीलच्या सर्व लेव्हल्स पूर्ण करा",
    "Achievement25": "फ्रांसच्या सर्व लेव्हल्स पूर्ण करा",
    "Achievement26": "कॅनडाच्या सर्व लेव्हल्स पूर्ण करा",
    "Achievement27": "जर्मनीच्या सर्व लेव्हल्स पूर्ण करा",
    "MissionComplete": "मिशन पूर्ण झाले",
    "AchievementComplete": "कामगिरी पूर्ण झाली",
    "Mission1": "25 शब्द लिहिणे",
    "Mission2": "25 लेव्हल पूर्ण करणे",
        "Mission3": "मिळवा 25 गुड कॉम्बो",
            "Mission4": "मिळवा 25 ग्रेट कॉम्बो",
    "Mission5": "50 शब्द लिहिणे",
    "Mission6": "10 वेळा मदत वापरणे",
        "Mission7": "मिळवा 25 अमेझिंग कॉम्बो",
    "Mission8": "मिळवा 25 अवेसम कॉम्बो",
    "Mission9": "25 शब्द लिहिणे",
    "Mission10": "अक्षर(A) मोजणी पर्याय 10 वेळा वापरणे",
    "Mission11": "लेव्हल नकाशाचे भेट बॉक्स आयटम 5 वेळा जमा करणे",
    "Mission12": "कोणत्याही 10 लेव्हल शब्द लेखन न चुकवता पार करणे",
    "Mission13": "50 शब्द लिहिणे",
    "Mission14": "10 बोनस शब्द जमा करणे",
        "Mission15": "मिळवा 25 गुड कॉम्बो",
    "Mission16": "अक्षर(A) मोजणी पर्याय 10 वेळा वापरणे",
    "Mission17": "25 शब्द लिहिणे",
    "Mission18": "10 वेळा मदत वापरणे",
    "Mission19": "10 बोनस शब्द जमा करणे",
    "Mission20": "कोणत्याही 10 शब्द लेखन न चुकवता पार करणे",
    "Tutorfirst": "अर्थपूर्ण शब्द तयार करण्यासाठी अक्षरे जोडा.",
    "TutorHint": "अजून मदत मिळविण्यासाठी मदत वापरा!",
    "TutorShuffle": "तुम्ही अडकला असाल तर अक्षरे परत व्यवस्थित सुरु करण्यासाठी अदलाबदल वापरा!",
    "TutorFreq": "हि अक्षरे ह्या लेव्हल मध्ये किती वेळा परत परत वापरली आहेत ते दाखविण्यासाठी ‘अक्षर-वारंवारता’ बटण वापरा.",
    "Play": "खेळा",
    "MorePuzzle": "तुम्ही सर्व लेव्हल पार केल्या आहेत असेच पुढे खेळत राहा आम्ही अजून लेव्हल्स अपडेट करत राहू.",
    "LetterInfo": "'अक्षर-वारंवारता' पर्याय लेव्हल 7 ला उपलब्ध होईल",
    "Ok": "ओके",
    "MissionStart": "नवीन मिशन सुरु होत आहे",
    "MissionEnd": "मिशन संपणार आहे",
    "RateTitle": "तुम्हाला ह्या खेळाला रेट करायला आवडेल का?",
    "RateMsg": "तुमचे रेटिंग आम्हाला खेळाला अपडेट करण्यासाठी मदत करते!",
    "CompletedAgain": "पुन्हा पूर्ण झाले!",
    "Gift": "बक्षीस",
    "NewGift": "नवीन बक्षीस अनलॉक झाले",
    "Install": "इंस्टॉल",
    "bonusToast":"बोनस शब्द",
  "bonusToast_1":"बोनस शब्द आधीच सापडला आहे",
  "swipeToast":"अक्षरे स्वाइप करा",
  "wrongToast":"चुकीचा शब्द",
  "alreadyFound":"आपल्याला हा शब्द आधीच सापडला आहे!",
  "Task":"नवीन कार्य",
  "Taskcomplete":"कार्य पूर्ण",
  "Free": "फुकट",
  "India":"भारत",
  "America":"अमेरिका",
  "Australia":"ऑस्ट्रेलिया",
  "England":"इंग्लंड",
  "Russia":"रशिया",
  "Indonesia":"इंडोनेशिया",
  "Japan":"जपान",
  "Brazil":"ब्राझील",
  "France":"फ्रान्स",
  "Canada":"कॅनडा",
  "German":"जर्मन",
  "NoInternet":"इंटरनेट जोडणी नाही",
  "NotNow":"आता नाही",
  "sendFeedback":"आम्हाला फीडबेक पाठवा.",
  "RateInfo":"आपण वर्ड प्रो कसे रेट कराल?",
  "RateInfo_1":"ते वाईट आहे. त्याऐवजी आपण आम्हाला अभिप्राय देऊ इच्छिता?",
  "RateInfo_2":"गेममध्ये आपण काय गहाळ आहात ते आम्हाला सांगा.आम्ही गेम सुधारण्याचा प्रयत्न करू",
  "RateInfo_3":"आपल्या मित्रांसह सामायिक करा",
  "RateInfo_4":"अप्रतिम! चला ते करूया!",
  "RateNow":"आता रेट करा",
  "Leaderboard":"लीडरबोर्ड",
  "NoPlayers":"रँकिंग मिळविण्यासाठी खेळण्यास प्रारंभ करा",
  "FbInfo":"आपल्या मित्रांना प्रगती पहा.आपल्या मित्रांना लढा द्या आणि एकाधिक डिव्हाइसेसवर खेळा.",
  "useHint":"संकेत शोधण्यासाठी इशारा पर्याय वापरा"
}

