{
	"Countries": ["भारत","अमेरिका","ऑस्ट्रेलिया","इंग्लंड","रशिया","इंडोनेशिया","जपान","ब्राझील","फ्रान्स","कॅनडा","जर्मन"],
	"Cntry_States": {
		"भारत": ["दिल्ली","हिमाचल प्रदेश","पंजाब","हरियाणा","उत्तर प्रदेश","बिहार","पश्चिम बंगाल","मध्य प्रदेश","राजस्थान","गुजरात","महाराष्ट्र","गोवा","ओरिसा","तेलंगाणा","आंध्र प्रदेश","तमिळनाडू","कर्नाटक","केरळ"],
		"अमेरिका": ["न्यूयॉर्क","सॅन फ्रांसिस्को","लॉस एंजेलिस","शिकागो","ह्युस्टन","फिनिक्स","फिलाडेल्फिया","सॅन अँटोनियो","सॅन डिएगो","डल्लास"],
		"ऑस्ट्रेलिया": ["सिडनी","मेलबर्न","ब्रिस्बेन","पर्थ","ऍडलेड","गोल्ड कोस्ट","कॅनबेरा","न्यूकासल","वोल्लोन्गोंग","होबार्ट"],
		"इंग्लंड": ["लंडन","चेस्टर","ब्रिस्टॉल","न्यूकासल","नॉटिंगहॅम","लिव्हरपूल","मँचेस्टर","ब्रिन्घटन","ऑक्सफर्ड","केंब्रिज"],
		"रशिया": ["मॉस्को","सेंट पीटर्सबर्ग","गोल्डन रिंग","काझन","इर्कुट्स्क","निझनी नोव्हगोरोड","व्लादिवोस्तोक","वेल्की नोव्हगोरोड","सोची","येकतेरिनबर्ग"],
		"इंडोनेशिया": ["योग्यकर्ता","सोलो","मेडन","सेमरंग","जकार्ता","बांडुंग","कुटा","जयपुरा","उबुद","सुरबाया"],
		"जपान": ["सप्पोरो","टोकियो","योकोहामा","नागोया","क्योटो","नारा","ओसाका","कोबे","हिरोशिमा","ओकिनावा"],
		"ब्राझील": ["साओ पाउलो","रिओ दि जानेरो","साल्वाडोर","ब्राझिलिया","फोर्टालिझा","बेलो होरिझोन्टे","मॅनॉस","कुरिटिबा","रेसिफा","पोर्तो अलेग्रे"],
		"फ्रान्स": ["पॅरिस","नाइस","बोर्डो","लिऑन","मार्सिले","स्ट्रासबर्ग","टूलूस","नॅन्टेस","लिल","माँटपेलियर"],
		"कॅनडा": ["टोरंटो","ओटावा","व्हँकुव्हर","मॉन्ट्रियल","व्हिक्टोरिया","हॅलिफाक्स","क्यूबेक","कॅलगरी","एडमंटन","हॅमिल्टन"],
		"जर्मन": ["बर्लिन","म्युनिक","फ्रँकफर्ट","हॅमबर्ग","कोलोन","ड्रेस्डेन","लिपझिग","हीडेलबर्ग","डसेल्डॉर्फ","स्टूटगार्ट"]
	},
	"India_Regions": {
		"दिल्ली": [
			"नरेला",
			"कांझावाला",
			"राजौरी गार्डन",
			"द्वारका",
			"कॅनॉट प्लेस"
		],
		"हिमाचल प्रदेश": [
			"चंबा",
			"कांगड़ा",
			"लाहुल आणि स्पीति",
			"कुल्लू",
			"शिमला"
		],
		"पंजाब": [
			"पटियाला",
			"लुधियाना",
			"फिरोजपूर",
			"अमृतसर",
			"गुरदासपूर"
		],
		"हरियाणा": [
			"फरीदाबाद",
			"गुडगाव",
			"रेवाडी",
			"अंबाला",
			"पंचकुला"
		],
		"उत्तर प्रदेश": [
			"आग्रा",
			"अलिगड",
			"लखनऊ",
			"सुलतानपूर",
			"आंबेडकर नगर"
		],
		"बिहार": [
			"पटना",
			"गया",
			"भागलपूर",
			"मुजफ्फरपूर",
			"पूर्णिया"
		],
		"पश्चिम बंगाल": [
			"कोलकाता",
			"पश्चीम मेदिनीपुर",
			"बर्धमान",
			"मालदा",
			"दार्जिलिंग"
		],
		"मध्य प्रदेश": [
			"भोपाळ",
			"ग्वालियर",
			"इंदौर",
			"शाजापूर",
			"दिंडोरी"
		],
		"राजस्थान": [
			"उदयपुर",
			"पाली",
			"जोधपूर",
			"जयपूर",
			"झुंझुनू"
		],
		"गुजरात": [
			"राजकोट",
			"कच्छ",
			"अहमदाबाद",
			"वडोदरा",
			"सूरत"
		],
		"महाराष्ट्र": [
			"मुंबई",
			"पुणे",
			"ठाणे",
			"औरंगाबाद",
			"सोलापूर"
		],
		"गोवा": [
			"वास्को दा गामा",
			"मार्गगाव",
			"पणजी",
			"मापुसा",
			"धारबंदोरा"
		],
		"ओरिसा": [
			"रायगड",
			"गंजम",
			"कटक",
			"अंगुल",
			"सुंदरगा"
		],
		"तेलंगाणा": [
			"निजामाबाद",
			"सिद्दिपेट",
			"हैदराबाद",
			"सूर्यपेट",
			"नालगोंडा"
		],
		"आंध्र प्रदेश": [
			"चित्तोड",
			"नेल्लोर",
			"गुंटूर",
			"अनंतपूर",
			"विशाखापट्टनम"
		],
		"तमिळनाडू": [
			"कोयंबटूर",
			"तिरुप्पूर",
			"मदुराई",
			"चेन्नई",
			"सालेम"
		],
		"कर्नाटक": [
			"बँगलोर",
			"मैसूर",
			"मंगरुरू",
			"बेळगाव",
			"गुलबर्गा"
		],
		"केरळ": [
			"कसारागोड",
			"वायनाड",
			"थ्रीसुर",
			"कोचीन",
			"तिरुवनंतपुरम"
		]
	}
	}
